%YAML 1.1
%TAG !u! tag:unity3d.com,2011:
--- !u!74 &7400000
AnimationClip:
  m_ObjectHideFlags: 0
  m_PrefabParentObject: {fileID: 0}
  m_PrefabInternal: {fileID: 0}
  m_Name: CardenalLoop
  serializedVersion: 6
  m_Legacy: 0
  m_Compressed: 0
  m_UseHighQualityCurve: 1
  m_RotationCurves: []
  m_CompressedRotationCurves: []
  m_EulerCurves: []
  m_PositionCurves: []
  m_ScaleCurves: []
  m_FloatCurves: []
  m_PPtrCurves:
  - curve:
    - time: 0
      value: {fileID: 21300000, guid: b70f9d7ddca4af249b246e0f2eeb92c0, type: 3}
    - time: 0.88
      value: {fileID: 21300000, guid: b70f9d7ddca4af249b246e0f2eeb92c0, type: 3}
    - time: 0.92
      value: {fileID: 21300000, guid: 2e0d4e55fda401e4492cce10560c5c83, type: 3}
    - time: 0.96
      value: {fileID: 21300000, guid: 5a8756974074dea41be09d761fa8db96, type: 3}
    - time: 1
      value: {fileID: 21300000, guid: 9cfaa6a0ac25d0749a3dfd4f444a0f54, type: 3}
    - time: 1.04
      value: {fileID: 21300000, guid: 7d5a181567def6049a67c3f997d3c2bf, type: 3}
    - time: 1.08
      value: {fileID: 21300000, guid: b1be946a5e42f6d458dac6a4891c2e44, type: 3}
    - time: 1.12
      value: {fileID: 21300000, guid: 4fd5679287787434ca6ec1da1c6f66fb, type: 3}
    - time: 1.16
      value: {fileID: 21300000, guid: 8c6d08ea8904c4045aa3410c079c8418, type: 3}
    - time: 1.2
      value: {fileID: 21300000, guid: daba386966b1be242a286f5b8ef4eea6, type: 3}
    - time: 1.24
      value: {fileID: 21300000, guid: 0e8972817b35d3146be0ea57d88ee291, type: 3}
    - time: 1.28
      value: {fileID: 21300000, guid: 824b855781b9cd743b47de3704a289bb, type: 3}
    - time: 2.48
      value: {fileID: 21300000, guid: b70f9d7ddca4af249b246e0f2eeb92c0, type: 3}
    - time: 2.52
      value: {fileID: 21300000, guid: 2e0d4e55fda401e4492cce10560c5c83, type: 3}
    - time: 2.56
      value: {fileID: 21300000, guid: 5a8756974074dea41be09d761fa8db96, type: 3}
    - time: 2.6
      value: {fileID: 21300000, guid: 9cfaa6a0ac25d0749a3dfd4f444a0f54, type: 3}
    - time: 2.6399999
      value: {fileID: 21300000, guid: 7d5a181567def6049a67c3f997d3c2bf, type: 3}
    - time: 2.68
      value: {fileID: 21300000, guid: b1be946a5e42f6d458dac6a4891c2e44, type: 3}
    - time: 2.72
      value: {fileID: 21300000, guid: 4fd5679287787434ca6ec1da1c6f66fb, type: 3}
    - time: 2.76
      value: {fileID: 21300000, guid: 8c6d08ea8904c4045aa3410c079c8418, type: 3}
    - time: 2.8000002
      value: {fileID: 21300000, guid: daba386966b1be242a286f5b8ef4eea6, type: 3}
    - time: 2.8400002
      value: {fileID: 21300000, guid: 0e8972817b35d3146be0ea57d88ee291, type: 3}
    - time: 2.88
      value: {fileID: 21300000, guid: b70f9d7ddca4af249b246e0f2eeb92c0, type: 3}
    - time: 2.92
      value: {fileID: 21300000, guid: 2e0d4e55fda401e4492cce10560c5c83, type: 3}
    - time: 2.96
      value: {fileID: 21300000, guid: 5a8756974074dea41be09d761fa8db96, type: 3}
    - time: 3
      value: {fileID: 21300000, guid: 9cfaa6a0ac25d0749a3dfd4f444a0f54, type: 3}
    - time: 3.04
      value: {fileID: 21300000, guid: 7d5a181567def6049a67c3f997d3c2bf, type: 3}
    - time: 3.0800002
      value: {fileID: 21300000, guid: b1be946a5e42f6d458dac6a4891c2e44, type: 3}
    - time: 3.1200001
      value: {fileID: 21300000, guid: 4fd5679287787434ca6ec1da1c6f66fb, type: 3}
    - time: 3.16
      value: {fileID: 21300000, guid: 8c6d08ea8904c4045aa3410c079c8418, type: 3}
    - time: 3.2000003
      value: {fileID: 21300000, guid: daba386966b1be242a286f5b8ef4eea6, type: 3}
    - time: 3.2400002
      value: {fileID: 21300000, guid: 0e8972817b35d3146be0ea57d88ee291, type: 3}
    - time: 3.2800002
      value: {fileID: 21300000, guid: 824b855781b9cd743b47de3704a289bb, type: 3}
    - time: 4.12
      value: {fileID: 21300000, guid: b70f9d7ddca4af249b246e0f2eeb92c0, type: 3}
    - time: 4.16
      value: {fileID: 21300000, guid: 2e0d4e55fda401e4492cce10560c5c83, type: 3}
    - time: 4.2
      value: {fileID: 21300000, guid: 5a8756974074dea41be09d761fa8db96, type: 3}
    - time: 4.24
      value: {fileID: 21300000, guid: 9cfaa6a0ac25d0749a3dfd4f444a0f54, type: 3}
    - time: 4.2799997
      value: {fileID: 21300000, guid: 7d5a181567def6049a67c3f997d3c2bf, type: 3}
    - time: 4.3199997
      value: {fileID: 21300000, guid: b1be946a5e42f6d458dac6a4891c2e44, type: 3}
    - time: 4.3599997
      value: {fileID: 21300000, guid: 4fd5679287787434ca6ec1da1c6f66fb, type: 3}
    - time: 4.3999996
      value: {fileID: 21300000, guid: 8c6d08ea8904c4045aa3410c079c8418, type: 3}
    - time: 4.44
      value: {fileID: 21300000, guid: daba386966b1be242a286f5b8ef4eea6, type: 3}
    - time: 4.48
      value: {fileID: 21300000, guid: 0e8972817b35d3146be0ea57d88ee291, type: 3}
    - time: 4.52
      value: {fileID: 21300000, guid: 824b855781b9cd743b47de3704a289bb, type: 3}
    - time: 4.92
      value: {fileID: 21300000, guid: b70f9d7ddca4af249b246e0f2eeb92c0, type: 3}
    - time: 4.96
      value: {fileID: 21300000, guid: 2e0d4e55fda401e4492cce10560c5c83, type: 3}
    - time: 5
      value: {fileID: 21300000, guid: 5a8756974074dea41be09d761fa8db96, type: 3}
    - time: 5.04
      value: {fileID: 21300000, guid: 9cfaa6a0ac25d0749a3dfd4f444a0f54, type: 3}
    - time: 5.08
      value: {fileID: 21300000, guid: 7d5a181567def6049a67c3f997d3c2bf, type: 3}
    - time: 5.12
      value: {fileID: 21300000, guid: b1be946a5e42f6d458dac6a4891c2e44, type: 3}
    - time: 5.16
      value: {fileID: 21300000, guid: 4fd5679287787434ca6ec1da1c6f66fb, type: 3}
    - time: 5.2
      value: {fileID: 21300000, guid: 8c6d08ea8904c4045aa3410c079c8418, type: 3}
    - time: 5.2400002
      value: {fileID: 21300000, guid: daba386966b1be242a286f5b8ef4eea6, type: 3}
    - time: 5.28
      value: {fileID: 21300000, guid: 0e8972817b35d3146be0ea57d88ee291, type: 3}
    - time: 5.32
      value: {fileID: 21300000, guid: 824b855781b9cd743b47de3704a289bb, type: 3}
    attribute: m_Sprite
    path: 
    classID: 114
    script: {fileID: -765806418, guid: f70555f144d8491a825f0804e09c671c, type: 3}
  m_SampleRate: 25
  m_WrapMode: 0
  m_Bounds:
    m_Center: {x: 0, y: 0, z: 0}
    m_Extent: {x: 0, y: 0, z: 0}
  m_ClipBindingConstant:
    genericBindings:
    - serializedVersion: 2
      path: 0
      attribute: 2015549526
      script: {fileID: -765806418, guid: f70555f144d8491a825f0804e09c671c, type: 3}
      typeID: 114
      customType: 0
      isPPtrCurve: 1
    pptrCurveMapping:
    - {fileID: 21300000, guid: b70f9d7ddca4af249b246e0f2eeb92c0, type: 3}
    - {fileID: 21300000, guid: b70f9d7ddca4af249b246e0f2eeb92c0, type: 3}
    - {fileID: 21300000, guid: 2e0d4e55fda401e4492cce10560c5c83, type: 3}
    - {fileID: 21300000, guid: 5a8756974074dea41be09d761fa8db96, type: 3}
    - {fileID: 21300000, guid: 9cfaa6a0ac25d0749a3dfd4f444a0f54, type: 3}
    - {fileID: 21300000, guid: 7d5a181567def6049a67c3f997d3c2bf, type: 3}
    - {fileID: 21300000, guid: b1be946a5e42f6d458dac6a4891c2e44, type: 3}
    - {fileID: 21300000, guid: 4fd5679287787434ca6ec1da1c6f66fb, type: 3}
    - {fileID: 21300000, guid: 8c6d08ea8904c4045aa3410c079c8418, type: 3}
    - {fileID: 21300000, guid: daba386966b1be242a286f5b8ef4eea6, type: 3}
    - {fileID: 21300000, guid: 0e8972817b35d3146be0ea57d88ee291, type: 3}
    - {fileID: 21300000, guid: 824b855781b9cd743b47de3704a289bb, type: 3}
    - {fileID: 21300000, guid: b70f9d7ddca4af249b246e0f2eeb92c0, type: 3}
    - {fileID: 21300000, guid: 2e0d4e55fda401e4492cce10560c5c83, type: 3}
    - {fileID: 21300000, guid: 5a8756974074dea41be09d761fa8db96, type: 3}
    - {fileID: 21300000, guid: 9cfaa6a0ac25d0749a3dfd4f444a0f54, type: 3}
    - {fileID: 21300000, guid: 7d5a181567def6049a67c3f997d3c2bf, type: 3}
    - {fileID: 21300000, guid: b1be946a5e42f6d458dac6a4891c2e44, type: 3}
    - {fileID: 21300000, guid: 4fd5679287787434ca6ec1da1c6f66fb, type: 3}
    - {fileID: 21300000, guid: 8c6d08ea8904c4045aa3410c079c8418, type: 3}
    - {fileID: 21300000, guid: daba386966b1be242a286f5b8ef4eea6, type: 3}
    - {fileID: 21300000, guid: 0e8972817b35d3146be0ea57d88ee291, type: 3}
    - {fileID: 21300000, guid: b70f9d7ddca4af249b246e0f2eeb92c0, type: 3}
    - {fileID: 21300000, guid: 2e0d4e55fda401e4492cce10560c5c83, type: 3}
    - {fileID: 21300000, guid: 5a8756974074dea41be09d761fa8db96, type: 3}
    - {fileID: 21300000, guid: 9cfaa6a0ac25d0749a3dfd4f444a0f54, type: 3}
    - {fileID: 21300000, guid: 7d5a181567def6049a67c3f997d3c2bf, type: 3}
    - {fileID: 21300000, guid: b1be946a5e42f6d458dac6a4891c2e44, type: 3}
    - {fileID: 21300000, guid: 4fd5679287787434ca6ec1da1c6f66fb, type: 3}
    - {fileID: 21300000, guid: 8c6d08ea8904c4045aa3410c079c8418, type: 3}
    - {fileID: 21300000, guid: daba386966b1be242a286f5b8ef4eea6, type: 3}
    - {fileID: 21300000, guid: 0e8972817b35d3146be0ea57d88ee291, type: 3}
    - {fileID: 21300000, guid: 824b855781b9cd743b47de3704a289bb, type: 3}
    - {fileID: 21300000, guid: b70f9d7ddca4af249b246e0f2eeb92c0, type: 3}
    - {fileID: 21300000, guid: 2e0d4e55fda401e4492cce10560c5c83, type: 3}
    - {fileID: 21300000, guid: 5a8756974074dea41be09d761fa8db96, type: 3}
    - {fileID: 21300000, guid: 9cfaa6a0ac25d0749a3dfd4f444a0f54, type: 3}
    - {fileID: 21300000, guid: 7d5a181567def6049a67c3f997d3c2bf, type: 3}
    - {fileID: 21300000, guid: b1be946a5e42f6d458dac6a4891c2e44, type: 3}
    - {fileID: 21300000, guid: 4fd5679287787434ca6ec1da1c6f66fb, type: 3}
    - {fileID: 21300000, guid: 8c6d08ea8904c4045aa3410c079c8418, type: 3}
    - {fileID: 21300000, guid: daba386966b1be242a286f5b8ef4eea6, type: 3}
    - {fileID: 21300000, guid: 0e8972817b35d3146be0ea57d88ee291, type: 3}
    - {fileID: 21300000, guid: 824b855781b9cd743b47de3704a289bb, type: 3}
    - {fileID: 21300000, guid: b70f9d7ddca4af249b246e0f2eeb92c0, type: 3}
    - {fileID: 21300000, guid: 2e0d4e55fda401e4492cce10560c5c83, type: 3}
    - {fileID: 21300000, guid: 5a8756974074dea41be09d761fa8db96, type: 3}
    - {fileID: 21300000, guid: 9cfaa6a0ac25d0749a3dfd4f444a0f54, type: 3}
    - {fileID: 21300000, guid: 7d5a181567def6049a67c3f997d3c2bf, type: 3}
    - {fileID: 21300000, guid: b1be946a5e42f6d458dac6a4891c2e44, type: 3}
    - {fileID: 21300000, guid: 4fd5679287787434ca6ec1da1c6f66fb, type: 3}
    - {fileID: 21300000, guid: 8c6d08ea8904c4045aa3410c079c8418, type: 3}
    - {fileID: 21300000, guid: daba386966b1be242a286f5b8ef4eea6, type: 3}
    - {fileID: 21300000, guid: 0e8972817b35d3146be0ea57d88ee291, type: 3}
    - {fileID: 21300000, guid: 824b855781b9cd743b47de3704a289bb, type: 3}
  m_AnimationClipSettings:
    serializedVersion: 2
    m_AdditiveReferencePoseClip: {fileID: 0}
    m_AdditiveReferencePoseTime: 0
    m_StartTime: 0
    m_StopTime: 5.36
    m_OrientationOffsetY: 0
    m_Level: 0
    m_CycleOffset: 0
    m_HasAdditiveReferencePose: 0
    m_LoopTime: 1
    m_LoopBlend: 0
    m_LoopBlendOrientation: 0
    m_LoopBlendPositionY: 0
    m_LoopBlendPositionXZ: 0
    m_KeepOriginalOrientation: 0
    m_KeepOriginalPositionY: 1
    m_KeepOriginalPositionXZ: 0
    m_HeightFromFeet: 0
    m_Mirror: 0
  m_EditorCurves: []
  m_EulerEditorCurves: []
  m_HasGenericRootTransform: 0
  m_HasMotionFloatCurves: 0
  m_GenerateMotionCurves: 0
  m_Events: []
