%YAML 1.1
%TAG !u! tag:unity3d.com,2011:
--- !u!74 &7400000
AnimationClip:
  m_ObjectHideFlags: 0
  m_PrefabParentObject: {fileID: 0}
  m_PrefabInternal: {fileID: 0}
  m_Name: PezAmarilloSpriteC
  serializedVersion: 6
  m_Legacy: 0
  m_Compressed: 0
  m_UseHighQualityCurve: 1
  m_RotationCurves: []
  m_CompressedRotationCurves: []
  m_EulerCurves: []
  m_PositionCurves: []
  m_ScaleCurves: []
  m_FloatCurves: []
  m_PPtrCurves:
  - curve:
    - time: 0
      value: {fileID: 21300000, guid: 7bdc91b1ae3fdc44f94cc457b8f90714, type: 3}
    - time: 0.04
      value: {fileID: 21300000, guid: 8d010a61d39467b4ea1b6effaabee740, type: 3}
    - time: 0.08
      value: {fileID: 21300000, guid: 052adf67ba1aedc409166ab416c9ddb9, type: 3}
    - time: 0.12
      value: {fileID: 21300000, guid: a67501c66e8faca41ab102dc379e9b10, type: 3}
    - time: 0.16
      value: {fileID: 21300000, guid: 46f93520f66a04849a6732c7dfa5001b, type: 3}
    - time: 0.2
      value: {fileID: 21300000, guid: f74be03de7166ae49a4efc78f9c38568, type: 3}
    - time: 0.24000001
      value: {fileID: 21300000, guid: 84bdc2c49b3e30147a21b89cedeb35d9, type: 3}
    - time: 0.28
      value: {fileID: 21300000, guid: 7833382199039af4e90a9fa4fe444965, type: 3}
    - time: 0.32
      value: {fileID: 21300000, guid: a7183c1e3ae05e04e90039149be93d39, type: 3}
    - time: 0.35999998
      value: {fileID: 21300000, guid: ed80cc63f3ccc9e4f8aa76d47bb25c30, type: 3}
    - time: 0.39999998
      value: {fileID: 21300000, guid: 61483f3b728270242a1676578fad54e2, type: 3}
    - time: 0.43999997
      value: {fileID: 21300000, guid: bc0629abc38f10240a46d6d25512b87c, type: 3}
    - time: 0.47999996
      value: {fileID: 21300000, guid: 123c4e00c0fce4b40ae190cbd99e6fcd, type: 3}
    - time: 0.52
      value: {fileID: 21300000, guid: 4750ee66b39468e45b6985d7b2658fa9, type: 3}
    - time: 0.56
      value: {fileID: 21300000, guid: 8153aeef8cdf41941997d3ed1a6a57a8, type: 3}
    - time: 0.6
      value: {fileID: 21300000, guid: 2483de27407257e4fb6b3d620ff8e471, type: 3}
    - time: 0.64000005
      value: {fileID: 21300000, guid: 20aca1099a9580745980b26c4e13e187, type: 3}
    - time: 0.68000007
      value: {fileID: 21300000, guid: b06ec0bb6ad363d479960a911f2b95f5, type: 3}
    - time: 0.7200001
      value: {fileID: 21300000, guid: 7cdf30529ef3b8d4fa5def2c13d1a525, type: 3}
    - time: 0.7600001
      value: {fileID: 21300000, guid: f825c4da3c3a05b46aaea104c4dfb15f, type: 3}
    - time: 0.80000013
      value: {fileID: 21300000, guid: d93e798489a831543ae17fefeda4c6da, type: 3}
    - time: 0.84000015
      value: {fileID: 21300000, guid: d2fcd1edca4417a4e8e98d475bb525a0, type: 3}
    - time: 0.8800002
      value: {fileID: 21300000, guid: 8d5a6bb0cb6f612468849f13cb7ae59c, type: 3}
    - time: 0.9200002
      value: {fileID: 21300000, guid: 13a4f41707e3c7a4b80cabc20644c3e9, type: 3}
    - time: 0.9600002
      value: {fileID: 21300000, guid: 946ac8b9db3f933498fb87e4a011a3ef, type: 3}
    - time: 1.0000002
      value: {fileID: 21300000, guid: eca80b7fad2c9ef4d97c31ba1ef6558e, type: 3}
    - time: 1.0400002
      value: {fileID: 21300000, guid: 9949b7a686b01884bb117c460862b473, type: 3}
    - time: 1.0800002
      value: {fileID: 21300000, guid: 8abffeb0cfe64304796d4d84a192a7cd, type: 3}
    - time: 1.1200001
      value: {fileID: 21300000, guid: fdcdda46a613b3845987c87c04e43125, type: 3}
    - time: 1.1600001
      value: {fileID: 21300000, guid: 9c6b5f2e7ced4b240a3c077aaf1ba382, type: 3}
    - time: 1.2
      value: {fileID: 21300000, guid: ab266328398b9044f8791dc91a14172b, type: 3}
    - time: 1.24
      value: {fileID: 21300000, guid: 1fa1f27ecca5afd47819055d75814d4f, type: 3}
    - time: 1.28
      value: {fileID: 21300000, guid: 50ca60f30c5686c41826199da96374d8, type: 3}
    - time: 1.3199999
      value: {fileID: 21300000, guid: 6263da2652130b040b11172122b2c12f, type: 3}
    - time: 1.3599999
      value: {fileID: 21300000, guid: e7010c45c04bd9443a0a4c1eed1dad49, type: 3}
    - time: 1.3999999
      value: {fileID: 21300000, guid: 10b6b27a7d293bb43aa407ae40fcc65b, type: 3}
    - time: 1.4399998
      value: {fileID: 21300000, guid: b848efa054dfd19488f3d4622c194990, type: 3}
    - time: 1.4799998
      value: {fileID: 21300000, guid: 3a535f605d70a00439cb94fe5175f4cb, type: 3}
    - time: 1.5199997
      value: {fileID: 21300000, guid: 5db0742a4d9fa6446901857bf478106b, type: 3}
    - time: 1.5599997
      value: {fileID: 21300000, guid: 41d43f18ca1c01d49889f5460aac40b1, type: 3}
    - time: 1.5999997
      value: {fileID: 21300000, guid: 3d29f6052c2947641b68e3c7180dcd0c, type: 3}
    - time: 1.6399996
      value: {fileID: 21300000, guid: 15794c42528840041993d1c47e621f13, type: 3}
    - time: 1.6799996
      value: {fileID: 21300000, guid: 2450be2501bc63c458e535b73d65cbce, type: 3}
    - time: 1.7199996
      value: {fileID: 21300000, guid: 6093ed227e356b64395f960f7e6b3ee8, type: 3}
    - time: 1.7599995
      value: {fileID: 21300000, guid: 95500a0155491b44f9d92854e49101cf, type: 3}
    - time: 1.7999995
      value: {fileID: 21300000, guid: 045c8c5e394bdaa4ebfcb088c877c5dd, type: 3}
    - time: 1.8399994
      value: {fileID: 21300000, guid: 31356443cb3fd3a47ab19d2d559e2b26, type: 3}
    - time: 1.8799994
      value: {fileID: 21300000, guid: b8d54343a2ef54f4ebc4bf3549be6cf6, type: 3}
    - time: 1.9199994
      value: {fileID: 21300000, guid: 0733f03147bec7d4db51263624e8662c, type: 3}
    - time: 1.9599993
      value: {fileID: 21300000, guid: 17d9e5059cebae646807cd219af2dc43, type: 3}
    - time: 1.9999993
      value: {fileID: 21300000, guid: 4897fb41f730e0943b41d2afd22c014c, type: 3}
    - time: 2.0399992
      value: {fileID: 21300000, guid: 505ed36004f6c57468bd0dd5517e568e, type: 3}
    - time: 2.0799992
      value: {fileID: 21300000, guid: ee92f9dba97ebbf4eab67058820c2b20, type: 3}
    - time: 2.1199992
      value: {fileID: 21300000, guid: 8494b38c87abbd348b06286be88d2ff8, type: 3}
    - time: 2.1599991
      value: {fileID: 21300000, guid: 5c1918c74a4481c4e902cf3004cf4e46, type: 3}
    - time: 2.199999
      value: {fileID: 21300000, guid: e2daafe9bb67a9147b53d121855f4441, type: 3}
    - time: 2.239999
      value: {fileID: 21300000, guid: 791e7a113f6437045b714a09b153c573, type: 3}
    - time: 2.279999
      value: {fileID: 21300000, guid: 8269357963ac55848a234a6ddceb4f2c, type: 3}
    - time: 2.319999
      value: {fileID: 21300000, guid: a866a0bb53530004b855f929e0e2f155, type: 3}
    - time: 2.359999
      value: {fileID: 21300000, guid: a30a4d70daa65b740ab102cc90b26796, type: 3}
    - time: 2.399999
      value: {fileID: 21300000, guid: c1c6474e8afb40a4aa143760b0132af9, type: 3}
    - time: 2.4399989
      value: {fileID: 21300000, guid: d3b9a5f49ed46d0489c09abfb76da131, type: 3}
    - time: 2.4799988
      value: {fileID: 21300000, guid: e2dc8d86e90b26c4da68663b79dbce43, type: 3}
    - time: 2.5199988
      value: {fileID: 21300000, guid: 4ef1ab06f0aa2f745b086e8cf5041cd5, type: 3}
    - time: 2.5599988
      value: {fileID: 21300000, guid: 1271832603935924ab60e4283f20a8a7, type: 3}
    - time: 2.5999987
      value: {fileID: 21300000, guid: 8317011747564ae4c81df849cddb6179, type: 3}
    - time: 2.6399987
      value: {fileID: 21300000, guid: 39de2570e7a867f43ac01d70edc187e5, type: 3}
    - time: 2.6799986
      value: {fileID: 21300000, guid: c3ad6268fd7c4a143b9db8d66446ee63, type: 3}
    - time: 2.7199986
      value: {fileID: 21300000, guid: d22616593c8326d44a7a2d9620fc9a66, type: 3}
    - time: 2.7599986
      value: {fileID: 21300000, guid: 17a172b5aabf87b4bb151f01a97a08af, type: 3}
    - time: 2.7999985
      value: {fileID: 21300000, guid: a3fc379f64008034aa09ffbb889ab2a4, type: 3}
    - time: 2.8399985
      value: {fileID: 21300000, guid: 1dbc449edf3d21242b01fc492291816d, type: 3}
    - time: 2.8799984
      value: {fileID: 21300000, guid: f6c4151bb2e4fa346a6ea8c0362918cc, type: 3}
    - time: 2.9199984
      value: {fileID: 21300000, guid: 173f418252e49f544afd214f9aec44a7, type: 3}
    - time: 2.9599984
      value: {fileID: 21300000, guid: e649057084ef8264da337091cd5ee4bf, type: 3}
    - time: 2.9999983
      value: {fileID: 21300000, guid: 7f236a99a4ad67948a4dddceb3e1f2e4, type: 3}
    - time: 3.0399983
      value: {fileID: 21300000, guid: 2589fff973e8f5c4095b144dd1991883, type: 3}
    - time: 3.0799983
      value: {fileID: 21300000, guid: 19d9fe4e448618641b0e3b1bf0c33bd1, type: 3}
    - time: 3.1199982
      value: {fileID: 21300000, guid: 6cde3681a7660d64d806ee118e2fed51, type: 3}
    - time: 3.1599982
      value: {fileID: 21300000, guid: 6b5836642337b5b49b48c4dae13c2eb0, type: 3}
    - time: 3.1999981
      value: {fileID: 21300000, guid: e33877f2b8503e1428c5cec8b6d7bdbb, type: 3}
    - time: 3.239998
      value: {fileID: 21300000, guid: 43d2c220705ea2a489301abc7f89db40, type: 3}
    - time: 3.279998
      value: {fileID: 21300000, guid: c0697a7be662ea647afbc193b134ab11, type: 3}
    - time: 3.319998
      value: {fileID: 21300000, guid: 6f868814a470a714884270ee65dd5dec, type: 3}
    - time: 3.359998
      value: {fileID: 21300000, guid: e4c5e7cbb66e553459df3edb0273dc16, type: 3}
    - time: 3.399998
      value: {fileID: 21300000, guid: b7ce15b83a2c66f4f9c4a11fac1f7430, type: 3}
    - time: 3.439998
      value: {fileID: 21300000, guid: 408e4e45e1ab9994d927da3adb0c9d55, type: 3}
    - time: 3.4799979
      value: {fileID: 21300000, guid: 40c5f1114072d4f458b689a27aea6d35, type: 3}
    - time: 3.5199978
      value: {fileID: 21300000, guid: 18a7f4bedd2bc7f40b035734ab031feb, type: 3}
    - time: 3.5599978
      value: {fileID: 21300000, guid: 44b88bb8d5476a7439b0f8f03671bc64, type: 3}
    - time: 3.5999978
      value: {fileID: 21300000, guid: 26b5e8aaafbffcd419744f7b407637f4, type: 3}
    - time: 3.6399977
      value: {fileID: 21300000, guid: 9b9b0021b480a5845a5aa7f6aa497e68, type: 3}
    - time: 3.6799977
      value: {fileID: 21300000, guid: 89a73451e15589741af9ffb38b8fde05, type: 3}
    - time: 3.7199976
      value: {fileID: 21300000, guid: 1765bb0598b534f40903556784003f6e, type: 3}
    - time: 3.7599976
      value: {fileID: 21300000, guid: e90ef392cd9869640bc6d4a19c8b3533, type: 3}
    - time: 3.7999976
      value: {fileID: 21300000, guid: 33727457a42b7a94581a0434d6358697, type: 3}
    - time: 3.8399975
      value: {fileID: 21300000, guid: 69de300b47ca91249bc2cd1d2146b06a, type: 3}
    - time: 3.8799975
      value: {fileID: 21300000, guid: 4103a9efbc048684c87919b32e4bb20f, type: 3}
    - time: 3.9199975
      value: {fileID: 21300000, guid: fb8df44c2918de54f96e5266759dedf9, type: 3}
    - time: 3.9599974
      value: {fileID: 21300000, guid: 602d1b38e64a7ff42a511161ffcfddec, type: 3}
    - time: 3.9999974
      value: {fileID: 21300000, guid: 298fba9b52630c34caff4b1c60b3d4a3, type: 3}
    - time: 4.0399976
      value: {fileID: 21300000, guid: 715ec999fc00ba749b85949219127b80, type: 3}
    - time: 4.0799975
      value: {fileID: 21300000, guid: d529e0f8449e1444b80727edc6d7e4fd, type: 3}
    - time: 4.1199975
      value: {fileID: 21300000, guid: 964beffa8afbed64c9371784db774236, type: 3}
    - time: 4.1599975
      value: {fileID: 21300000, guid: 7840ac580b25f564685e0218ad5dc8c6, type: 3}
    - time: 4.1999974
      value: {fileID: 21300000, guid: 1cc08258b8ee7a743895abc6a66df74a, type: 3}
    - time: 4.2399974
      value: {fileID: 21300000, guid: 4319b6dc0f962214fb3019343db66fa8, type: 3}
    - time: 4.2799973
      value: {fileID: 21300000, guid: c83c476685ba1aa4ab5a9b285d3ff3ba, type: 3}
    - time: 4.3199973
      value: {fileID: 21300000, guid: 6eef5545a841df148b13ddbb3f6eeeef, type: 3}
    - time: 4.3599973
      value: {fileID: 21300000, guid: c162875eac4cc4247833970b376f1ced, type: 3}
    - time: 4.399997
      value: {fileID: 21300000, guid: 7ee24199550b59e42a27c7206b9a187b, type: 3}
    - time: 4.439997
      value: {fileID: 21300000, guid: 1a1f8abad66d11140a69291e9cdcef49, type: 3}
    - time: 4.479997
      value: {fileID: 21300000, guid: b28169de431431c4ab41c6ba4b0668f6, type: 3}
    - time: 4.519997
      value: {fileID: 21300000, guid: 3a10706cc6e1002469afe1265dc1beeb, type: 3}
    - time: 4.559997
      value: {fileID: 21300000, guid: 3b20f5948505ba34dbd06f8d3baa14d2, type: 3}
    - time: 4.599997
      value: {fileID: 21300000, guid: 0923993f870665049a7045e77b615894, type: 3}
    - time: 4.639997
      value: {fileID: 21300000, guid: c4520f7947b00fb459e4a712afdb0d8c, type: 3}
    - time: 4.679997
      value: {fileID: 21300000, guid: cd2240f027c63304b8d64f3d54b86bbd, type: 3}
    - time: 4.719997
      value: {fileID: 21300000, guid: bb02fbb3dc8399c49aada87e67f46f7b, type: 3}
    - time: 4.759997
      value: {fileID: 21300000, guid: fa39bedb3323fef4089333f0e03adbbb, type: 3}
    - time: 4.799997
      value: {fileID: 21300000, guid: 8335b0c61b4adde468b2b713f2e198ed, type: 3}
    - time: 4.839997
      value: {fileID: 21300000, guid: 0a8903749bd851346a885cb6f4ba9153, type: 3}
    - time: 4.879997
      value: {fileID: 21300000, guid: 17a3880bfe73ede41b9a062e016c9c44, type: 3}
    - time: 4.9199967
      value: {fileID: 21300000, guid: 5caabf16efafee44f846eba321e53ca8, type: 3}
    - time: 4.9599967
      value: {fileID: 21300000, guid: 525fe820dbcd00e4d9411ac21a0e7915, type: 3}
    attribute: m_Sprite
    path: 
    classID: 114
    script: {fileID: -765806418, guid: f70555f144d8491a825f0804e09c671c, type: 3}
  m_SampleRate: 25
  m_WrapMode: 0
  m_Bounds:
    m_Center: {x: 0, y: 0, z: 0}
    m_Extent: {x: 0, y: 0, z: 0}
  m_ClipBindingConstant:
    genericBindings:
    - serializedVersion: 2
      path: 0
      attribute: 2015549526
      script: {fileID: -765806418, guid: f70555f144d8491a825f0804e09c671c, type: 3}
      typeID: 114
      customType: 0
      isPPtrCurve: 1
    pptrCurveMapping:
    - {fileID: 21300000, guid: 7bdc91b1ae3fdc44f94cc457b8f90714, type: 3}
    - {fileID: 21300000, guid: 8d010a61d39467b4ea1b6effaabee740, type: 3}
    - {fileID: 21300000, guid: 052adf67ba1aedc409166ab416c9ddb9, type: 3}
    - {fileID: 21300000, guid: a67501c66e8faca41ab102dc379e9b10, type: 3}
    - {fileID: 21300000, guid: 46f93520f66a04849a6732c7dfa5001b, type: 3}
    - {fileID: 21300000, guid: f74be03de7166ae49a4efc78f9c38568, type: 3}
    - {fileID: 21300000, guid: 84bdc2c49b3e30147a21b89cedeb35d9, type: 3}
    - {fileID: 21300000, guid: 7833382199039af4e90a9fa4fe444965, type: 3}
    - {fileID: 21300000, guid: a7183c1e3ae05e04e90039149be93d39, type: 3}
    - {fileID: 21300000, guid: ed80cc63f3ccc9e4f8aa76d47bb25c30, type: 3}
    - {fileID: 21300000, guid: 61483f3b728270242a1676578fad54e2, type: 3}
    - {fileID: 21300000, guid: bc0629abc38f10240a46d6d25512b87c, type: 3}
    - {fileID: 21300000, guid: 123c4e00c0fce4b40ae190cbd99e6fcd, type: 3}
    - {fileID: 21300000, guid: 4750ee66b39468e45b6985d7b2658fa9, type: 3}
    - {fileID: 21300000, guid: 8153aeef8cdf41941997d3ed1a6a57a8, type: 3}
    - {fileID: 21300000, guid: 2483de27407257e4fb6b3d620ff8e471, type: 3}
    - {fileID: 21300000, guid: 20aca1099a9580745980b26c4e13e187, type: 3}
    - {fileID: 21300000, guid: b06ec0bb6ad363d479960a911f2b95f5, type: 3}
    - {fileID: 21300000, guid: 7cdf30529ef3b8d4fa5def2c13d1a525, type: 3}
    - {fileID: 21300000, guid: f825c4da3c3a05b46aaea104c4dfb15f, type: 3}
    - {fileID: 21300000, guid: d93e798489a831543ae17fefeda4c6da, type: 3}
    - {fileID: 21300000, guid: d2fcd1edca4417a4e8e98d475bb525a0, type: 3}
    - {fileID: 21300000, guid: 8d5a6bb0cb6f612468849f13cb7ae59c, type: 3}
    - {fileID: 21300000, guid: 13a4f41707e3c7a4b80cabc20644c3e9, type: 3}
    - {fileID: 21300000, guid: 946ac8b9db3f933498fb87e4a011a3ef, type: 3}
    - {fileID: 21300000, guid: eca80b7fad2c9ef4d97c31ba1ef6558e, type: 3}
    - {fileID: 21300000, guid: 9949b7a686b01884bb117c460862b473, type: 3}
    - {fileID: 21300000, guid: 8abffeb0cfe64304796d4d84a192a7cd, type: 3}
    - {fileID: 21300000, guid: fdcdda46a613b3845987c87c04e43125, type: 3}
    - {fileID: 21300000, guid: 9c6b5f2e7ced4b240a3c077aaf1ba382, type: 3}
    - {fileID: 21300000, guid: ab266328398b9044f8791dc91a14172b, type: 3}
    - {fileID: 21300000, guid: 1fa1f27ecca5afd47819055d75814d4f, type: 3}
    - {fileID: 21300000, guid: 50ca60f30c5686c41826199da96374d8, type: 3}
    - {fileID: 21300000, guid: 6263da2652130b040b11172122b2c12f, type: 3}
    - {fileID: 21300000, guid: e7010c45c04bd9443a0a4c1eed1dad49, type: 3}
    - {fileID: 21300000, guid: 10b6b27a7d293bb43aa407ae40fcc65b, type: 3}
    - {fileID: 21300000, guid: b848efa054dfd19488f3d4622c194990, type: 3}
    - {fileID: 21300000, guid: 3a535f605d70a00439cb94fe5175f4cb, type: 3}
    - {fileID: 21300000, guid: 5db0742a4d9fa6446901857bf478106b, type: 3}
    - {fileID: 21300000, guid: 41d43f18ca1c01d49889f5460aac40b1, type: 3}
    - {fileID: 21300000, guid: 3d29f6052c2947641b68e3c7180dcd0c, type: 3}
    - {fileID: 21300000, guid: 15794c42528840041993d1c47e621f13, type: 3}
    - {fileID: 21300000, guid: 2450be2501bc63c458e535b73d65cbce, type: 3}
    - {fileID: 21300000, guid: 6093ed227e356b64395f960f7e6b3ee8, type: 3}
    - {fileID: 21300000, guid: 95500a0155491b44f9d92854e49101cf, type: 3}
    - {fileID: 21300000, guid: 045c8c5e394bdaa4ebfcb088c877c5dd, type: 3}
    - {fileID: 21300000, guid: 31356443cb3fd3a47ab19d2d559e2b26, type: 3}
    - {fileID: 21300000, guid: b8d54343a2ef54f4ebc4bf3549be6cf6, type: 3}
    - {fileID: 21300000, guid: 0733f03147bec7d4db51263624e8662c, type: 3}
    - {fileID: 21300000, guid: 17d9e5059cebae646807cd219af2dc43, type: 3}
    - {fileID: 21300000, guid: 4897fb41f730e0943b41d2afd22c014c, type: 3}
    - {fileID: 21300000, guid: 505ed36004f6c57468bd0dd5517e568e, type: 3}
    - {fileID: 21300000, guid: ee92f9dba97ebbf4eab67058820c2b20, type: 3}
    - {fileID: 21300000, guid: 8494b38c87abbd348b06286be88d2ff8, type: 3}
    - {fileID: 21300000, guid: 5c1918c74a4481c4e902cf3004cf4e46, type: 3}
    - {fileID: 21300000, guid: e2daafe9bb67a9147b53d121855f4441, type: 3}
    - {fileID: 21300000, guid: 791e7a113f6437045b714a09b153c573, type: 3}
    - {fileID: 21300000, guid: 8269357963ac55848a234a6ddceb4f2c, type: 3}
    - {fileID: 21300000, guid: a866a0bb53530004b855f929e0e2f155, type: 3}
    - {fileID: 21300000, guid: a30a4d70daa65b740ab102cc90b26796, type: 3}
    - {fileID: 21300000, guid: c1c6474e8afb40a4aa143760b0132af9, type: 3}
    - {fileID: 21300000, guid: d3b9a5f49ed46d0489c09abfb76da131, type: 3}
    - {fileID: 21300000, guid: e2dc8d86e90b26c4da68663b79dbce43, type: 3}
    - {fileID: 21300000, guid: 4ef1ab06f0aa2f745b086e8cf5041cd5, type: 3}
    - {fileID: 21300000, guid: 1271832603935924ab60e4283f20a8a7, type: 3}
    - {fileID: 21300000, guid: 8317011747564ae4c81df849cddb6179, type: 3}
    - {fileID: 21300000, guid: 39de2570e7a867f43ac01d70edc187e5, type: 3}
    - {fileID: 21300000, guid: c3ad6268fd7c4a143b9db8d66446ee63, type: 3}
    - {fileID: 21300000, guid: d22616593c8326d44a7a2d9620fc9a66, type: 3}
    - {fileID: 21300000, guid: 17a172b5aabf87b4bb151f01a97a08af, type: 3}
    - {fileID: 21300000, guid: a3fc379f64008034aa09ffbb889ab2a4, type: 3}
    - {fileID: 21300000, guid: 1dbc449edf3d21242b01fc492291816d, type: 3}
    - {fileID: 21300000, guid: f6c4151bb2e4fa346a6ea8c0362918cc, type: 3}
    - {fileID: 21300000, guid: 173f418252e49f544afd214f9aec44a7, type: 3}
    - {fileID: 21300000, guid: e649057084ef8264da337091cd5ee4bf, type: 3}
    - {fileID: 21300000, guid: 7f236a99a4ad67948a4dddceb3e1f2e4, type: 3}
    - {fileID: 21300000, guid: 2589fff973e8f5c4095b144dd1991883, type: 3}
    - {fileID: 21300000, guid: 19d9fe4e448618641b0e3b1bf0c33bd1, type: 3}
    - {fileID: 21300000, guid: 6cde3681a7660d64d806ee118e2fed51, type: 3}
    - {fileID: 21300000, guid: 6b5836642337b5b49b48c4dae13c2eb0, type: 3}
    - {fileID: 21300000, guid: e33877f2b8503e1428c5cec8b6d7bdbb, type: 3}
    - {fileID: 21300000, guid: 43d2c220705ea2a489301abc7f89db40, type: 3}
    - {fileID: 21300000, guid: c0697a7be662ea647afbc193b134ab11, type: 3}
    - {fileID: 21300000, guid: 6f868814a470a714884270ee65dd5dec, type: 3}
    - {fileID: 21300000, guid: e4c5e7cbb66e553459df3edb0273dc16, type: 3}
    - {fileID: 21300000, guid: b7ce15b83a2c66f4f9c4a11fac1f7430, type: 3}
    - {fileID: 21300000, guid: 408e4e45e1ab9994d927da3adb0c9d55, type: 3}
    - {fileID: 21300000, guid: 40c5f1114072d4f458b689a27aea6d35, type: 3}
    - {fileID: 21300000, guid: 18a7f4bedd2bc7f40b035734ab031feb, type: 3}
    - {fileID: 21300000, guid: 44b88bb8d5476a7439b0f8f03671bc64, type: 3}
    - {fileID: 21300000, guid: 26b5e8aaafbffcd419744f7b407637f4, type: 3}
    - {fileID: 21300000, guid: 9b9b0021b480a5845a5aa7f6aa497e68, type: 3}
    - {fileID: 21300000, guid: 89a73451e15589741af9ffb38b8fde05, type: 3}
    - {fileID: 21300000, guid: 1765bb0598b534f40903556784003f6e, type: 3}
    - {fileID: 21300000, guid: e90ef392cd9869640bc6d4a19c8b3533, type: 3}
    - {fileID: 21300000, guid: 33727457a42b7a94581a0434d6358697, type: 3}
    - {fileID: 21300000, guid: 69de300b47ca91249bc2cd1d2146b06a, type: 3}
    - {fileID: 21300000, guid: 4103a9efbc048684c87919b32e4bb20f, type: 3}
    - {fileID: 21300000, guid: fb8df44c2918de54f96e5266759dedf9, type: 3}
    - {fileID: 21300000, guid: 602d1b38e64a7ff42a511161ffcfddec, type: 3}
    - {fileID: 21300000, guid: 298fba9b52630c34caff4b1c60b3d4a3, type: 3}
    - {fileID: 21300000, guid: 715ec999fc00ba749b85949219127b80, type: 3}
    - {fileID: 21300000, guid: d529e0f8449e1444b80727edc6d7e4fd, type: 3}
    - {fileID: 21300000, guid: 964beffa8afbed64c9371784db774236, type: 3}
    - {fileID: 21300000, guid: 7840ac580b25f564685e0218ad5dc8c6, type: 3}
    - {fileID: 21300000, guid: 1cc08258b8ee7a743895abc6a66df74a, type: 3}
    - {fileID: 21300000, guid: 4319b6dc0f962214fb3019343db66fa8, type: 3}
    - {fileID: 21300000, guid: c83c476685ba1aa4ab5a9b285d3ff3ba, type: 3}
    - {fileID: 21300000, guid: 6eef5545a841df148b13ddbb3f6eeeef, type: 3}
    - {fileID: 21300000, guid: c162875eac4cc4247833970b376f1ced, type: 3}
    - {fileID: 21300000, guid: 7ee24199550b59e42a27c7206b9a187b, type: 3}
    - {fileID: 21300000, guid: 1a1f8abad66d11140a69291e9cdcef49, type: 3}
    - {fileID: 21300000, guid: b28169de431431c4ab41c6ba4b0668f6, type: 3}
    - {fileID: 21300000, guid: 3a10706cc6e1002469afe1265dc1beeb, type: 3}
    - {fileID: 21300000, guid: 3b20f5948505ba34dbd06f8d3baa14d2, type: 3}
    - {fileID: 21300000, guid: 0923993f870665049a7045e77b615894, type: 3}
    - {fileID: 21300000, guid: c4520f7947b00fb459e4a712afdb0d8c, type: 3}
    - {fileID: 21300000, guid: cd2240f027c63304b8d64f3d54b86bbd, type: 3}
    - {fileID: 21300000, guid: bb02fbb3dc8399c49aada87e67f46f7b, type: 3}
    - {fileID: 21300000, guid: fa39bedb3323fef4089333f0e03adbbb, type: 3}
    - {fileID: 21300000, guid: 8335b0c61b4adde468b2b713f2e198ed, type: 3}
    - {fileID: 21300000, guid: 0a8903749bd851346a885cb6f4ba9153, type: 3}
    - {fileID: 21300000, guid: 17a3880bfe73ede41b9a062e016c9c44, type: 3}
    - {fileID: 21300000, guid: 5caabf16efafee44f846eba321e53ca8, type: 3}
    - {fileID: 21300000, guid: 525fe820dbcd00e4d9411ac21a0e7915, type: 3}
  m_AnimationClipSettings:
    serializedVersion: 2
    m_AdditiveReferencePoseClip: {fileID: 0}
    m_AdditiveReferencePoseTime: 0
    m_StartTime: 0
    m_StopTime: 4.9999967
    m_OrientationOffsetY: 0
    m_Level: 0
    m_CycleOffset: 0
    m_HasAdditiveReferencePose: 0
    m_LoopTime: 1
    m_LoopBlend: 0
    m_LoopBlendOrientation: 0
    m_LoopBlendPositionY: 0
    m_LoopBlendPositionXZ: 0
    m_KeepOriginalOrientation: 0
    m_KeepOriginalPositionY: 1
    m_KeepOriginalPositionXZ: 0
    m_HeightFromFeet: 0
    m_Mirror: 0
  m_EditorCurves: []
  m_EulerEditorCurves: []
  m_HasGenericRootTransform: 0
  m_HasMotionFloatCurves: 0
  m_GenerateMotionCurves: 0
  m_Events: []
