%YAML 1.1
%TAG !u! tag:unity3d.com,2011:
--- !u!74 &7400000
AnimationClip:
  m_ObjectHideFlags: 0
  m_PrefabParentObject: {fileID: 0}
  m_PrefabInternal: {fileID: 0}
  m_Name: PezAmarilloSpriteA
  serializedVersion: 6
  m_Legacy: 0
  m_Compressed: 0
  m_UseHighQualityCurve: 1
  m_RotationCurves: []
  m_CompressedRotationCurves: []
  m_EulerCurves: []
  m_PositionCurves: []
  m_ScaleCurves: []
  m_FloatCurves: []
  m_PPtrCurves:
  - curve:
    - time: 0
      value: {fileID: 21300000, guid: 7a2b3e71ef5152b48a8fe23ae8906bf5, type: 3}
    - time: 0.04
      value: {fileID: 21300000, guid: 0833b6d67e6cb1841abbb75404b4d4fe, type: 3}
    - time: 0.08
      value: {fileID: 21300000, guid: b30fbf401a1c7004fb4a19fdefdbe90c, type: 3}
    - time: 0.12
      value: {fileID: 21300000, guid: bdcd631f7074b7c49af4a4c297f8e72d, type: 3}
    - time: 0.16
      value: {fileID: 21300000, guid: eab9b7e03df6fd947a481693cae0c8b4, type: 3}
    - time: 0.2
      value: {fileID: 21300000, guid: f9755483fec664d4a9bcaae7685829c7, type: 3}
    - time: 0.24000001
      value: {fileID: 21300000, guid: 65c7c49b720e0404a9917711461f2134, type: 3}
    - time: 0.28
      value: {fileID: 21300000, guid: 45d89ce148ed7774c85137fde1eccb5c, type: 3}
    - time: 0.32
      value: {fileID: 21300000, guid: 4d71d793127d1a84c98e321c43822153, type: 3}
    - time: 0.35999998
      value: {fileID: 21300000, guid: b76a933a05a88f14dbb00e1c50820c6d, type: 3}
    - time: 0.39999998
      value: {fileID: 21300000, guid: 047ef90569ae0ec4f98b252d45c9992b, type: 3}
    - time: 0.43999997
      value: {fileID: 21300000, guid: 51b5ce7742cd2ac419363cede488b359, type: 3}
    - time: 0.47999996
      value: {fileID: 21300000, guid: 662d8d881be15414c94202032224fa8e, type: 3}
    - time: 0.52
      value: {fileID: 21300000, guid: fcf85c4ca18a28a44abcfe8bc409d1df, type: 3}
    - time: 0.56
      value: {fileID: 21300000, guid: 79d8b81fce88567409f8e93d28d6965d, type: 3}
    - time: 0.6
      value: {fileID: 21300000, guid: 23019ab293351294ea3f893dfc415279, type: 3}
    - time: 0.64000005
      value: {fileID: 21300000, guid: 8a36e912f7ad4624a8fffeee3d652a85, type: 3}
    - time: 0.68000007
      value: {fileID: 21300000, guid: b7c04a4ab760719438067a52c45ff0ae, type: 3}
    - time: 0.7200001
      value: {fileID: 21300000, guid: 60d448fc8e731ed4191df6eedbd997b7, type: 3}
    - time: 0.7600001
      value: {fileID: 21300000, guid: 44873745660e54e4eab5583009dc6189, type: 3}
    - time: 0.80000013
      value: {fileID: 21300000, guid: 5c772fbd7a6a3da4881fd2d3f23f8fa4, type: 3}
    - time: 0.84000015
      value: {fileID: 21300000, guid: d7fe2b765b0e44b45bd34c01afbbedf3, type: 3}
    - time: 0.8800002
      value: {fileID: 21300000, guid: 57d194417b0cd014c89c7ad609ee74d8, type: 3}
    - time: 0.9200002
      value: {fileID: 21300000, guid: cb94c20afa578bc4a8ef7c328a9405f0, type: 3}
    - time: 0.9600002
      value: {fileID: 21300000, guid: 0ead18481d4ea7b4380650537e733c67, type: 3}
    - time: 1.0000002
      value: {fileID: 21300000, guid: 1edc4027f39f906439a1341e93837ad6, type: 3}
    - time: 1.0400002
      value: {fileID: 21300000, guid: d578ec0e3328c594f94ea8f49bd4a92a, type: 3}
    - time: 1.0800002
      value: {fileID: 21300000, guid: a768e27ab8266514ab834e20327486e9, type: 3}
    - time: 1.1200001
      value: {fileID: 21300000, guid: bf698a0c85f72fa4e980749b55ac6449, type: 3}
    - time: 1.1600001
      value: {fileID: 21300000, guid: 1bb19df6a8dda2143af2c35365db85a3, type: 3}
    - time: 1.2
      value: {fileID: 21300000, guid: 37530c052b775144ebd0b95a8bb6e0bb, type: 3}
    - time: 1.24
      value: {fileID: 21300000, guid: 0fba564f9033551448564bca3a311d87, type: 3}
    - time: 1.28
      value: {fileID: 21300000, guid: 4dc23ff36ed7fca458a855540dc33dc1, type: 3}
    - time: 1.3199999
      value: {fileID: 21300000, guid: 19d0c498e28cc864b8e592ba3ee7060d, type: 3}
    - time: 1.3599999
      value: {fileID: 21300000, guid: e9ca29d3e883e034194919708efc94ab, type: 3}
    - time: 1.3999999
      value: {fileID: 21300000, guid: f4f51cd4c43539e49bf3681c71fa498f, type: 3}
    - time: 1.4399998
      value: {fileID: 21300000, guid: 6dcb5a9a3b11a464c94bbc7df14d2b1e, type: 3}
    - time: 1.4799998
      value: {fileID: 21300000, guid: f04ef8c609ea0184c980e84f78c5570a, type: 3}
    - time: 1.5199997
      value: {fileID: 21300000, guid: 2618a8fa95a6b1f4db73057a4fd8499f, type: 3}
    - time: 1.5599997
      value: {fileID: 21300000, guid: cf9ea6ba5ad807044953cfe0fa579070, type: 3}
    - time: 1.5999997
      value: {fileID: 21300000, guid: b4507b7d8be87d345881e6d59ea6e707, type: 3}
    - time: 1.6399996
      value: {fileID: 21300000, guid: 23a9c04e46b36cd4e82fab98062a1d38, type: 3}
    - time: 1.6799996
      value: {fileID: 21300000, guid: a4baa25b2f0c5714bb4a80ca12a7f303, type: 3}
    - time: 1.7199996
      value: {fileID: 21300000, guid: e3251541d58843744a70cef01f5f3281, type: 3}
    - time: 1.7599995
      value: {fileID: 21300000, guid: 2803c025a047bb44fbedd78d7c48396d, type: 3}
    - time: 1.7999995
      value: {fileID: 21300000, guid: 66b28ce9a9df3a445b40fc96d898afdf, type: 3}
    - time: 1.8399994
      value: {fileID: 21300000, guid: 91b90dd8b9825c74d82a7afea82e0347, type: 3}
    - time: 1.8799994
      value: {fileID: 21300000, guid: ec959fbb24a8f0741a0cf1b7df9179d0, type: 3}
    - time: 1.9199994
      value: {fileID: 21300000, guid: 506a16f21e9c0734da2955f119c803fc, type: 3}
    - time: 1.9599993
      value: {fileID: 21300000, guid: 978f1456811c8324eaace3daf850d043, type: 3}
    - time: 1.9999993
      value: {fileID: 21300000, guid: e89f5e3eb447db342ae0d48455e83bdf, type: 3}
    - time: 2.0399992
      value: {fileID: 21300000, guid: 6bf4f824f419a1e4e813aff30134ea51, type: 3}
    - time: 2.0799992
      value: {fileID: 21300000, guid: 79d6d30abf0cf8c4884a3e2146812052, type: 3}
    - time: 2.1199992
      value: {fileID: 21300000, guid: 6dd8ed8dfb7df904b9c94fc4bf966378, type: 3}
    - time: 2.1599991
      value: {fileID: 21300000, guid: 69b182ab1ef3856459390ba3795a4d35, type: 3}
    - time: 2.199999
      value: {fileID: 21300000, guid: ed35805fae9cbd244b5ad049a7407f40, type: 3}
    - time: 2.239999
      value: {fileID: 21300000, guid: 1c0d569475933cd4d86363060362995f, type: 3}
    - time: 2.279999
      value: {fileID: 21300000, guid: 125a41f0b2615634590d2a14d77f2c4c, type: 3}
    - time: 2.319999
      value: {fileID: 21300000, guid: 63dbdc5b61369a249a4f0af84039ba0a, type: 3}
    - time: 2.359999
      value: {fileID: 21300000, guid: bf2d1ddf156a44d428075f8995f09bfd, type: 3}
    - time: 2.399999
      value: {fileID: 21300000, guid: e250a0524313d4849b3b8d0b4a21bab1, type: 3}
    - time: 2.4399989
      value: {fileID: 21300000, guid: 644e078c783c5aa43b01404ce262bab9, type: 3}
    - time: 2.4799988
      value: {fileID: 21300000, guid: b2c73856d003a1a4c8af994c5b61974c, type: 3}
    - time: 2.5199988
      value: {fileID: 21300000, guid: d529ac26ea9650347ba8c8d4ff76ad8b, type: 3}
    - time: 2.5599988
      value: {fileID: 21300000, guid: c5951ceefc4df5a4ca59b4eb7d5c2dae, type: 3}
    - time: 2.5999987
      value: {fileID: 21300000, guid: 04c8148ba9d0a4f41913dc592f806031, type: 3}
    - time: 2.6399987
      value: {fileID: 21300000, guid: 1ed8112c38eb4e44ba2381aeab5d3fac, type: 3}
    - time: 2.6799986
      value: {fileID: 21300000, guid: 94875dce3b6429544a37590c8d936655, type: 3}
    - time: 2.7199986
      value: {fileID: 21300000, guid: 71f36e512cbf4654da3ba351d662f54e, type: 3}
    - time: 2.7599986
      value: {fileID: 21300000, guid: 72a298156eb2bdb48ad9492c12a07ba2, type: 3}
    - time: 2.7999985
      value: {fileID: 21300000, guid: 9806869e45814434cae61987e7104a4d, type: 3}
    - time: 2.8399985
      value: {fileID: 21300000, guid: e12a3c968f7823c4eb5e4dc20ece8950, type: 3}
    - time: 2.8799984
      value: {fileID: 21300000, guid: 131f17b7f5091fa4480846563ae6ed0d, type: 3}
    - time: 2.9199984
      value: {fileID: 21300000, guid: ee528cbd77163f94f9027008d90ab503, type: 3}
    - time: 2.9599984
      value: {fileID: 21300000, guid: e8b546a6d282d2f4689182d8986ef079, type: 3}
    - time: 2.9999983
      value: {fileID: 21300000, guid: a7d55c5817bf6954fbac4436d5939a08, type: 3}
    - time: 3.0399983
      value: {fileID: 21300000, guid: d9c61556c39486943801dc566004fdd9, type: 3}
    - time: 3.0799983
      value: {fileID: 21300000, guid: b7d32e794622f394395129373fe2f31e, type: 3}
    - time: 3.1199982
      value: {fileID: 21300000, guid: 29941c2efd5658b4ebc9a13090d5e42f, type: 3}
    - time: 3.1599982
      value: {fileID: 21300000, guid: 26850657624ec054cb5816f7b0ce38ff, type: 3}
    - time: 3.1999981
      value: {fileID: 21300000, guid: 70f1e9d758edbb04f9408c75eebf5b66, type: 3}
    - time: 3.239998
      value: {fileID: 21300000, guid: 86a2c8c69b294524e9263dae83fdf787, type: 3}
    - time: 3.279998
      value: {fileID: 21300000, guid: 2aee44093a8633648961ac1a6e96ed49, type: 3}
    - time: 3.319998
      value: {fileID: 21300000, guid: e4a00fbabd476484096d10b24ad5dd2b, type: 3}
    - time: 3.359998
      value: {fileID: 21300000, guid: 05b1f8eaeceb52b43bfe53c3021077b6, type: 3}
    - time: 3.399998
      value: {fileID: 21300000, guid: 6a41e9fad77d8374095dd90487905b8d, type: 3}
    - time: 3.439998
      value: {fileID: 21300000, guid: 52ee5e218dcd0cd4cb414eddd685442d, type: 3}
    - time: 3.4799979
      value: {fileID: 21300000, guid: 3a0d280fea85d1c488f71a995b3d1ce5, type: 3}
    - time: 3.5199978
      value: {fileID: 21300000, guid: 058a45240bf769c4da0703e8df123f37, type: 3}
    - time: 3.5599978
      value: {fileID: 21300000, guid: 7dcefffe37b53b945801fc7d7bfc9193, type: 3}
    - time: 3.5999978
      value: {fileID: 21300000, guid: 3c264424e8128b749bf5e7a06b6882f7, type: 3}
    - time: 3.6399977
      value: {fileID: 21300000, guid: e80cd6f62aba98f45bc09e9b6e3e7922, type: 3}
    - time: 3.6799977
      value: {fileID: 21300000, guid: 5ba29ca7d3fef364b9de05a6e78ca0f5, type: 3}
    - time: 3.7199976
      value: {fileID: 21300000, guid: 993d21f76043cb447b298e3feab6cd27, type: 3}
    - time: 3.7599976
      value: {fileID: 21300000, guid: c31209a5720e39a4ba2a90306f1f0eac, type: 3}
    - time: 3.7999976
      value: {fileID: 21300000, guid: 82a1e233bc5b41b4fa4b2c6d86de5669, type: 3}
    - time: 3.8399975
      value: {fileID: 21300000, guid: c0b2a67d52703a24682f56ac84041478, type: 3}
    - time: 3.8799975
      value: {fileID: 21300000, guid: c9cad71c9055a514482038070ce46b6c, type: 3}
    - time: 3.9199975
      value: {fileID: 21300000, guid: 76aaa1282c92d374bafde1494a4f74e8, type: 3}
    - time: 3.9599974
      value: {fileID: 21300000, guid: 7e22e117794ef0441a77ea8b7ad4b60a, type: 3}
    - time: 3.9999974
      value: {fileID: 21300000, guid: 49edff2ee74fb654aac146e2019c1edf, type: 3}
    - time: 4.0399976
      value: {fileID: 21300000, guid: e2deb0a6e51d8644c90ce7fd2b54a4d0, type: 3}
    - time: 4.0799975
      value: {fileID: 21300000, guid: 497a38c6e72e50b41aa55eb056ea9c4d, type: 3}
    - time: 4.1199975
      value: {fileID: 21300000, guid: 7d6952f6fbfa71a4fac899c3924b4287, type: 3}
    - time: 4.1599975
      value: {fileID: 21300000, guid: 0895a711dee1b9546b802defebfa69c2, type: 3}
    - time: 4.1999974
      value: {fileID: 21300000, guid: aaa2b560b198d7345995269732bcc012, type: 3}
    - time: 4.2399974
      value: {fileID: 21300000, guid: b3012cbc3f1ac9c48a0e69feab881d5b, type: 3}
    - time: 4.2799973
      value: {fileID: 21300000, guid: d872d07a9caf82644995bbf9628703d0, type: 3}
    - time: 4.3199973
      value: {fileID: 21300000, guid: 2f41c78f1c99d5547b4eecaa7a12d16d, type: 3}
    - time: 4.3599973
      value: {fileID: 21300000, guid: 770b0973e72f90e4fae4f064e7847cb7, type: 3}
    - time: 4.399997
      value: {fileID: 21300000, guid: adf16a9dd2f3d104f8eee5b771bba17b, type: 3}
    - time: 4.439997
      value: {fileID: 21300000, guid: 1ab92e583823a6d408ad5952d176d8dd, type: 3}
    - time: 4.479997
      value: {fileID: 21300000, guid: 2c8b8d0160a3f654288910a2d1d73463, type: 3}
    - time: 4.519997
      value: {fileID: 21300000, guid: 6b35adb0433d3f946bb773a9ae81f88e, type: 3}
    - time: 4.559997
      value: {fileID: 21300000, guid: cc41d088c644888418cfcf5b04668e43, type: 3}
    - time: 4.599997
      value: {fileID: 21300000, guid: 440107af48b3ea34dae6bff64e306cc8, type: 3}
    - time: 4.639997
      value: {fileID: 21300000, guid: 1937246977e5b374fb59501574a7a3bf, type: 3}
    - time: 4.679997
      value: {fileID: 21300000, guid: c746cefbb1cad0b45ac2d5884d2e89c5, type: 3}
    - time: 4.719997
      value: {fileID: 21300000, guid: 659c1688ec688c24ca4e16048027cba2, type: 3}
    - time: 4.759997
      value: {fileID: 21300000, guid: cd35ea56392361445b9463c4dc863846, type: 3}
    - time: 4.799997
      value: {fileID: 21300000, guid: 7eeac23c9c3068b4ea33bb88c2e09005, type: 3}
    - time: 4.839997
      value: {fileID: 21300000, guid: c92511850e25b9d4ab9b4e92db75943e, type: 3}
    - time: 4.879997
      value: {fileID: 21300000, guid: 1e42e22bf8f272848b9d876e96949238, type: 3}
    - time: 4.9199967
      value: {fileID: 21300000, guid: 7d6bd3c45aad449458c2fae1d8aa6f53, type: 3}
    - time: 4.9599967
      value: {fileID: 21300000, guid: 86151636f50ef8c4b980988cace2b68e, type: 3}
    attribute: m_Sprite
    path: 
    classID: 114
    script: {fileID: -765806418, guid: f70555f144d8491a825f0804e09c671c, type: 3}
  m_SampleRate: 25
  m_WrapMode: 0
  m_Bounds:
    m_Center: {x: 0, y: 0, z: 0}
    m_Extent: {x: 0, y: 0, z: 0}
  m_ClipBindingConstant:
    genericBindings:
    - serializedVersion: 2
      path: 0
      attribute: 2015549526
      script: {fileID: -765806418, guid: f70555f144d8491a825f0804e09c671c, type: 3}
      typeID: 114
      customType: 0
      isPPtrCurve: 1
    pptrCurveMapping:
    - {fileID: 21300000, guid: 7a2b3e71ef5152b48a8fe23ae8906bf5, type: 3}
    - {fileID: 21300000, guid: 0833b6d67e6cb1841abbb75404b4d4fe, type: 3}
    - {fileID: 21300000, guid: b30fbf401a1c7004fb4a19fdefdbe90c, type: 3}
    - {fileID: 21300000, guid: bdcd631f7074b7c49af4a4c297f8e72d, type: 3}
    - {fileID: 21300000, guid: eab9b7e03df6fd947a481693cae0c8b4, type: 3}
    - {fileID: 21300000, guid: f9755483fec664d4a9bcaae7685829c7, type: 3}
    - {fileID: 21300000, guid: 65c7c49b720e0404a9917711461f2134, type: 3}
    - {fileID: 21300000, guid: 45d89ce148ed7774c85137fde1eccb5c, type: 3}
    - {fileID: 21300000, guid: 4d71d793127d1a84c98e321c43822153, type: 3}
    - {fileID: 21300000, guid: b76a933a05a88f14dbb00e1c50820c6d, type: 3}
    - {fileID: 21300000, guid: 047ef90569ae0ec4f98b252d45c9992b, type: 3}
    - {fileID: 21300000, guid: 51b5ce7742cd2ac419363cede488b359, type: 3}
    - {fileID: 21300000, guid: 662d8d881be15414c94202032224fa8e, type: 3}
    - {fileID: 21300000, guid: fcf85c4ca18a28a44abcfe8bc409d1df, type: 3}
    - {fileID: 21300000, guid: 79d8b81fce88567409f8e93d28d6965d, type: 3}
    - {fileID: 21300000, guid: 23019ab293351294ea3f893dfc415279, type: 3}
    - {fileID: 21300000, guid: 8a36e912f7ad4624a8fffeee3d652a85, type: 3}
    - {fileID: 21300000, guid: b7c04a4ab760719438067a52c45ff0ae, type: 3}
    - {fileID: 21300000, guid: 60d448fc8e731ed4191df6eedbd997b7, type: 3}
    - {fileID: 21300000, guid: 44873745660e54e4eab5583009dc6189, type: 3}
    - {fileID: 21300000, guid: 5c772fbd7a6a3da4881fd2d3f23f8fa4, type: 3}
    - {fileID: 21300000, guid: d7fe2b765b0e44b45bd34c01afbbedf3, type: 3}
    - {fileID: 21300000, guid: 57d194417b0cd014c89c7ad609ee74d8, type: 3}
    - {fileID: 21300000, guid: cb94c20afa578bc4a8ef7c328a9405f0, type: 3}
    - {fileID: 21300000, guid: 0ead18481d4ea7b4380650537e733c67, type: 3}
    - {fileID: 21300000, guid: 1edc4027f39f906439a1341e93837ad6, type: 3}
    - {fileID: 21300000, guid: d578ec0e3328c594f94ea8f49bd4a92a, type: 3}
    - {fileID: 21300000, guid: a768e27ab8266514ab834e20327486e9, type: 3}
    - {fileID: 21300000, guid: bf698a0c85f72fa4e980749b55ac6449, type: 3}
    - {fileID: 21300000, guid: 1bb19df6a8dda2143af2c35365db85a3, type: 3}
    - {fileID: 21300000, guid: 37530c052b775144ebd0b95a8bb6e0bb, type: 3}
    - {fileID: 21300000, guid: 0fba564f9033551448564bca3a311d87, type: 3}
    - {fileID: 21300000, guid: 4dc23ff36ed7fca458a855540dc33dc1, type: 3}
    - {fileID: 21300000, guid: 19d0c498e28cc864b8e592ba3ee7060d, type: 3}
    - {fileID: 21300000, guid: e9ca29d3e883e034194919708efc94ab, type: 3}
    - {fileID: 21300000, guid: f4f51cd4c43539e49bf3681c71fa498f, type: 3}
    - {fileID: 21300000, guid: 6dcb5a9a3b11a464c94bbc7df14d2b1e, type: 3}
    - {fileID: 21300000, guid: f04ef8c609ea0184c980e84f78c5570a, type: 3}
    - {fileID: 21300000, guid: 2618a8fa95a6b1f4db73057a4fd8499f, type: 3}
    - {fileID: 21300000, guid: cf9ea6ba5ad807044953cfe0fa579070, type: 3}
    - {fileID: 21300000, guid: b4507b7d8be87d345881e6d59ea6e707, type: 3}
    - {fileID: 21300000, guid: 23a9c04e46b36cd4e82fab98062a1d38, type: 3}
    - {fileID: 21300000, guid: a4baa25b2f0c5714bb4a80ca12a7f303, type: 3}
    - {fileID: 21300000, guid: e3251541d58843744a70cef01f5f3281, type: 3}
    - {fileID: 21300000, guid: 2803c025a047bb44fbedd78d7c48396d, type: 3}
    - {fileID: 21300000, guid: 66b28ce9a9df3a445b40fc96d898afdf, type: 3}
    - {fileID: 21300000, guid: 91b90dd8b9825c74d82a7afea82e0347, type: 3}
    - {fileID: 21300000, guid: ec959fbb24a8f0741a0cf1b7df9179d0, type: 3}
    - {fileID: 21300000, guid: 506a16f21e9c0734da2955f119c803fc, type: 3}
    - {fileID: 21300000, guid: 978f1456811c8324eaace3daf850d043, type: 3}
    - {fileID: 21300000, guid: e89f5e3eb447db342ae0d48455e83bdf, type: 3}
    - {fileID: 21300000, guid: 6bf4f824f419a1e4e813aff30134ea51, type: 3}
    - {fileID: 21300000, guid: 79d6d30abf0cf8c4884a3e2146812052, type: 3}
    - {fileID: 21300000, guid: 6dd8ed8dfb7df904b9c94fc4bf966378, type: 3}
    - {fileID: 21300000, guid: 69b182ab1ef3856459390ba3795a4d35, type: 3}
    - {fileID: 21300000, guid: ed35805fae9cbd244b5ad049a7407f40, type: 3}
    - {fileID: 21300000, guid: 1c0d569475933cd4d86363060362995f, type: 3}
    - {fileID: 21300000, guid: 125a41f0b2615634590d2a14d77f2c4c, type: 3}
    - {fileID: 21300000, guid: 63dbdc5b61369a249a4f0af84039ba0a, type: 3}
    - {fileID: 21300000, guid: bf2d1ddf156a44d428075f8995f09bfd, type: 3}
    - {fileID: 21300000, guid: e250a0524313d4849b3b8d0b4a21bab1, type: 3}
    - {fileID: 21300000, guid: 644e078c783c5aa43b01404ce262bab9, type: 3}
    - {fileID: 21300000, guid: b2c73856d003a1a4c8af994c5b61974c, type: 3}
    - {fileID: 21300000, guid: d529ac26ea9650347ba8c8d4ff76ad8b, type: 3}
    - {fileID: 21300000, guid: c5951ceefc4df5a4ca59b4eb7d5c2dae, type: 3}
    - {fileID: 21300000, guid: 04c8148ba9d0a4f41913dc592f806031, type: 3}
    - {fileID: 21300000, guid: 1ed8112c38eb4e44ba2381aeab5d3fac, type: 3}
    - {fileID: 21300000, guid: 94875dce3b6429544a37590c8d936655, type: 3}
    - {fileID: 21300000, guid: 71f36e512cbf4654da3ba351d662f54e, type: 3}
    - {fileID: 21300000, guid: 72a298156eb2bdb48ad9492c12a07ba2, type: 3}
    - {fileID: 21300000, guid: 9806869e45814434cae61987e7104a4d, type: 3}
    - {fileID: 21300000, guid: e12a3c968f7823c4eb5e4dc20ece8950, type: 3}
    - {fileID: 21300000, guid: 131f17b7f5091fa4480846563ae6ed0d, type: 3}
    - {fileID: 21300000, guid: ee528cbd77163f94f9027008d90ab503, type: 3}
    - {fileID: 21300000, guid: e8b546a6d282d2f4689182d8986ef079, type: 3}
    - {fileID: 21300000, guid: a7d55c5817bf6954fbac4436d5939a08, type: 3}
    - {fileID: 21300000, guid: d9c61556c39486943801dc566004fdd9, type: 3}
    - {fileID: 21300000, guid: b7d32e794622f394395129373fe2f31e, type: 3}
    - {fileID: 21300000, guid: 29941c2efd5658b4ebc9a13090d5e42f, type: 3}
    - {fileID: 21300000, guid: 26850657624ec054cb5816f7b0ce38ff, type: 3}
    - {fileID: 21300000, guid: 70f1e9d758edbb04f9408c75eebf5b66, type: 3}
    - {fileID: 21300000, guid: 86a2c8c69b294524e9263dae83fdf787, type: 3}
    - {fileID: 21300000, guid: 2aee44093a8633648961ac1a6e96ed49, type: 3}
    - {fileID: 21300000, guid: e4a00fbabd476484096d10b24ad5dd2b, type: 3}
    - {fileID: 21300000, guid: 05b1f8eaeceb52b43bfe53c3021077b6, type: 3}
    - {fileID: 21300000, guid: 6a41e9fad77d8374095dd90487905b8d, type: 3}
    - {fileID: 21300000, guid: 52ee5e218dcd0cd4cb414eddd685442d, type: 3}
    - {fileID: 21300000, guid: 3a0d280fea85d1c488f71a995b3d1ce5, type: 3}
    - {fileID: 21300000, guid: 058a45240bf769c4da0703e8df123f37, type: 3}
    - {fileID: 21300000, guid: 7dcefffe37b53b945801fc7d7bfc9193, type: 3}
    - {fileID: 21300000, guid: 3c264424e8128b749bf5e7a06b6882f7, type: 3}
    - {fileID: 21300000, guid: e80cd6f62aba98f45bc09e9b6e3e7922, type: 3}
    - {fileID: 21300000, guid: 5ba29ca7d3fef364b9de05a6e78ca0f5, type: 3}
    - {fileID: 21300000, guid: 993d21f76043cb447b298e3feab6cd27, type: 3}
    - {fileID: 21300000, guid: c31209a5720e39a4ba2a90306f1f0eac, type: 3}
    - {fileID: 21300000, guid: 82a1e233bc5b41b4fa4b2c6d86de5669, type: 3}
    - {fileID: 21300000, guid: c0b2a67d52703a24682f56ac84041478, type: 3}
    - {fileID: 21300000, guid: c9cad71c9055a514482038070ce46b6c, type: 3}
    - {fileID: 21300000, guid: 76aaa1282c92d374bafde1494a4f74e8, type: 3}
    - {fileID: 21300000, guid: 7e22e117794ef0441a77ea8b7ad4b60a, type: 3}
    - {fileID: 21300000, guid: 49edff2ee74fb654aac146e2019c1edf, type: 3}
    - {fileID: 21300000, guid: e2deb0a6e51d8644c90ce7fd2b54a4d0, type: 3}
    - {fileID: 21300000, guid: 497a38c6e72e50b41aa55eb056ea9c4d, type: 3}
    - {fileID: 21300000, guid: 7d6952f6fbfa71a4fac899c3924b4287, type: 3}
    - {fileID: 21300000, guid: 0895a711dee1b9546b802defebfa69c2, type: 3}
    - {fileID: 21300000, guid: aaa2b560b198d7345995269732bcc012, type: 3}
    - {fileID: 21300000, guid: b3012cbc3f1ac9c48a0e69feab881d5b, type: 3}
    - {fileID: 21300000, guid: d872d07a9caf82644995bbf9628703d0, type: 3}
    - {fileID: 21300000, guid: 2f41c78f1c99d5547b4eecaa7a12d16d, type: 3}
    - {fileID: 21300000, guid: 770b0973e72f90e4fae4f064e7847cb7, type: 3}
    - {fileID: 21300000, guid: adf16a9dd2f3d104f8eee5b771bba17b, type: 3}
    - {fileID: 21300000, guid: 1ab92e583823a6d408ad5952d176d8dd, type: 3}
    - {fileID: 21300000, guid: 2c8b8d0160a3f654288910a2d1d73463, type: 3}
    - {fileID: 21300000, guid: 6b35adb0433d3f946bb773a9ae81f88e, type: 3}
    - {fileID: 21300000, guid: cc41d088c644888418cfcf5b04668e43, type: 3}
    - {fileID: 21300000, guid: 440107af48b3ea34dae6bff64e306cc8, type: 3}
    - {fileID: 21300000, guid: 1937246977e5b374fb59501574a7a3bf, type: 3}
    - {fileID: 21300000, guid: c746cefbb1cad0b45ac2d5884d2e89c5, type: 3}
    - {fileID: 21300000, guid: 659c1688ec688c24ca4e16048027cba2, type: 3}
    - {fileID: 21300000, guid: cd35ea56392361445b9463c4dc863846, type: 3}
    - {fileID: 21300000, guid: 7eeac23c9c3068b4ea33bb88c2e09005, type: 3}
    - {fileID: 21300000, guid: c92511850e25b9d4ab9b4e92db75943e, type: 3}
    - {fileID: 21300000, guid: 1e42e22bf8f272848b9d876e96949238, type: 3}
    - {fileID: 21300000, guid: 7d6bd3c45aad449458c2fae1d8aa6f53, type: 3}
    - {fileID: 21300000, guid: 86151636f50ef8c4b980988cace2b68e, type: 3}
  m_AnimationClipSettings:
    serializedVersion: 2
    m_AdditiveReferencePoseClip: {fileID: 0}
    m_AdditiveReferencePoseTime: 0
    m_StartTime: 0
    m_StopTime: 4.9999967
    m_OrientationOffsetY: 0
    m_Level: 0
    m_CycleOffset: 0
    m_HasAdditiveReferencePose: 0
    m_LoopTime: 1
    m_LoopBlend: 0
    m_LoopBlendOrientation: 0
    m_LoopBlendPositionY: 0
    m_LoopBlendPositionXZ: 0
    m_KeepOriginalOrientation: 0
    m_KeepOriginalPositionY: 1
    m_KeepOriginalPositionXZ: 0
    m_HeightFromFeet: 0
    m_Mirror: 0
  m_EditorCurves: []
  m_EulerEditorCurves: []
  m_HasGenericRootTransform: 0
  m_HasMotionFloatCurves: 0
  m_GenerateMotionCurves: 0
  m_Events: []
