%YAML 1.1
%TAG !u! tag:unity3d.com,2011:
--- !u!74 &7400000
AnimationClip:
  m_ObjectHideFlags: 0
  m_PrefabParentObject: {fileID: 0}
  m_PrefabInternal: {fileID: 0}
  m_Name: "P\xE1jaroLoop"
  serializedVersion: 6
  m_Legacy: 0
  m_Compressed: 0
  m_UseHighQualityCurve: 1
  m_RotationCurves: []
  m_CompressedRotationCurves: []
  m_EulerCurves: []
  m_PositionCurves: []
  m_ScaleCurves: []
  m_FloatCurves: []
  m_PPtrCurves:
  - curve:
    - time: 0
      value: {fileID: 21300000, guid: 2ab8ba6dd418eaf4f984482f810cafa1, type: 3}
    - time: 0.04
      value: {fileID: 21300000, guid: e3174dc981ed82e438e48f632851b15f, type: 3}
    - time: 0.08
      value: {fileID: 21300000, guid: ec040ff930e6ae745acd903af86812e6, type: 3}
    - time: 0.12
      value: {fileID: 21300000, guid: f86fc99de2e29404894d11270cbe4f9a, type: 3}
    - time: 0.16
      value: {fileID: 21300000, guid: e815489d7039be54d99799cc651077d8, type: 3}
    - time: 0.2
      value: {fileID: 21300000, guid: 757fdf02a37aade4891c7fb032d8cd48, type: 3}
    - time: 0.24000001
      value: {fileID: 21300000, guid: 732badc34cf8e774581e531366a5706c, type: 3}
    - time: 0.28
      value: {fileID: 21300000, guid: 3792f28f86a3e614e8bc03e0c587d833, type: 3}
    - time: 0.32
      value: {fileID: 21300000, guid: 9727627f6e72bdf44a8fceeb9e9f4940, type: 3}
    - time: 0.35999998
      value: {fileID: 21300000, guid: 37349b815bf70ba4ebd5895f12c3461f, type: 3}
    - time: 0.39999998
      value: {fileID: 21300000, guid: 26261dfde6cc9624c83096daa5bbfd7c, type: 3}
    - time: 0.43999997
      value: {fileID: 21300000, guid: 1387ace7f6824af4696041c7435f3230, type: 3}
    - time: 0.47999996
      value: {fileID: 21300000, guid: 3ead37e1dedabcf4ba4116c2a36c091f, type: 3}
    - time: 0.52
      value: {fileID: 21300000, guid: c3515ee4ca7f6c546a72e5d85a5be077, type: 3}
    - time: 0.56
      value: {fileID: 21300000, guid: ef87647115dac1e4fa251c750e1cc7dd, type: 3}
    - time: 0.6
      value: {fileID: 21300000, guid: c70b6cffd0a3a624eb9a8884e3f26f4d, type: 3}
    - time: 0.64000005
      value: {fileID: 21300000, guid: 60d0d1d1b5dd0fa489ba7bb46a24e244, type: 3}
    - time: 0.68000007
      value: {fileID: 21300000, guid: de937f863deaeed4999355bf2cda21b7, type: 3}
    - time: 0.7200001
      value: {fileID: 21300000, guid: 44f15662f9c8c1d429eb8b0597c6e920, type: 3}
    - time: 0.7600001
      value: {fileID: 21300000, guid: 336d5d2df815a604bbe86a4ab89ef72b, type: 3}
    - time: 0.80000013
      value: {fileID: 21300000, guid: a99e3c320e2c8bc47b9da2fa22956201, type: 3}
    - time: 0.84000015
      value: {fileID: 21300000, guid: 81c5d987018d17d4786097fbcaf10275, type: 3}
    - time: 0.8800002
      value: {fileID: 21300000, guid: e193b83b46da66a4f99e05859fd5ccff, type: 3}
    - time: 0.9200002
      value: {fileID: 21300000, guid: 7f08e44ff23008d42b28ab679bfd401d, type: 3}
    attribute: m_Sprite
    path: 
    classID: 114
    script: {fileID: -765806418, guid: f70555f144d8491a825f0804e09c671c, type: 3}
  m_SampleRate: 25
  m_WrapMode: 0
  m_Bounds:
    m_Center: {x: 0, y: 0, z: 0}
    m_Extent: {x: 0, y: 0, z: 0}
  m_ClipBindingConstant:
    genericBindings:
    - serializedVersion: 2
      path: 0
      attribute: 2015549526
      script: {fileID: -765806418, guid: f70555f144d8491a825f0804e09c671c, type: 3}
      typeID: 114
      customType: 0
      isPPtrCurve: 1
    pptrCurveMapping:
    - {fileID: 21300000, guid: 2ab8ba6dd418eaf4f984482f810cafa1, type: 3}
    - {fileID: 21300000, guid: e3174dc981ed82e438e48f632851b15f, type: 3}
    - {fileID: 21300000, guid: ec040ff930e6ae745acd903af86812e6, type: 3}
    - {fileID: 21300000, guid: f86fc99de2e29404894d11270cbe4f9a, type: 3}
    - {fileID: 21300000, guid: e815489d7039be54d99799cc651077d8, type: 3}
    - {fileID: 21300000, guid: 757fdf02a37aade4891c7fb032d8cd48, type: 3}
    - {fileID: 21300000, guid: 732badc34cf8e774581e531366a5706c, type: 3}
    - {fileID: 21300000, guid: 3792f28f86a3e614e8bc03e0c587d833, type: 3}
    - {fileID: 21300000, guid: 9727627f6e72bdf44a8fceeb9e9f4940, type: 3}
    - {fileID: 21300000, guid: 37349b815bf70ba4ebd5895f12c3461f, type: 3}
    - {fileID: 21300000, guid: 26261dfde6cc9624c83096daa5bbfd7c, type: 3}
    - {fileID: 21300000, guid: 1387ace7f6824af4696041c7435f3230, type: 3}
    - {fileID: 21300000, guid: 3ead37e1dedabcf4ba4116c2a36c091f, type: 3}
    - {fileID: 21300000, guid: c3515ee4ca7f6c546a72e5d85a5be077, type: 3}
    - {fileID: 21300000, guid: ef87647115dac1e4fa251c750e1cc7dd, type: 3}
    - {fileID: 21300000, guid: c70b6cffd0a3a624eb9a8884e3f26f4d, type: 3}
    - {fileID: 21300000, guid: 60d0d1d1b5dd0fa489ba7bb46a24e244, type: 3}
    - {fileID: 21300000, guid: de937f863deaeed4999355bf2cda21b7, type: 3}
    - {fileID: 21300000, guid: 44f15662f9c8c1d429eb8b0597c6e920, type: 3}
    - {fileID: 21300000, guid: 336d5d2df815a604bbe86a4ab89ef72b, type: 3}
    - {fileID: 21300000, guid: a99e3c320e2c8bc47b9da2fa22956201, type: 3}
    - {fileID: 21300000, guid: 81c5d987018d17d4786097fbcaf10275, type: 3}
    - {fileID: 21300000, guid: e193b83b46da66a4f99e05859fd5ccff, type: 3}
    - {fileID: 21300000, guid: 7f08e44ff23008d42b28ab679bfd401d, type: 3}
  m_AnimationClipSettings:
    serializedVersion: 2
    m_AdditiveReferencePoseClip: {fileID: 0}
    m_AdditiveReferencePoseTime: 0
    m_StartTime: 0
    m_StopTime: 0.9600002
    m_OrientationOffsetY: 0
    m_Level: 0
    m_CycleOffset: 0
    m_HasAdditiveReferencePose: 0
    m_LoopTime: 1
    m_LoopBlend: 0
    m_LoopBlendOrientation: 0
    m_LoopBlendPositionY: 0
    m_LoopBlendPositionXZ: 0
    m_KeepOriginalOrientation: 0
    m_KeepOriginalPositionY: 1
    m_KeepOriginalPositionXZ: 0
    m_HeightFromFeet: 0
    m_Mirror: 0
  m_EditorCurves: []
  m_EulerEditorCurves: []
  m_HasGenericRootTransform: 0
  m_HasMotionFloatCurves: 0
  m_GenerateMotionCurves: 0
  m_Events: []
