%YAML 1.1
%TAG !u! tag:unity3d.com,2011:
--- !u!74 &7400000
AnimationClip:
  m_ObjectHideFlags: 0
  m_PrefabParentObject: {fileID: 0}
  m_PrefabInternal: {fileID: 0}
  m_Name: PressIconReptiles
  serializedVersion: 6
  m_Legacy: 0
  m_Compressed: 0
  m_UseHighQualityCurve: 1
  m_RotationCurves: []
  m_CompressedRotationCurves: []
  m_EulerCurves: []
  m_PositionCurves: []
  m_ScaleCurves: []
  m_FloatCurves: []
  m_PPtrCurves:
  - curve:
    - time: 0
      value: {fileID: 21300000, guid: fcf494a40de6a0746a8875c0dac3b94e, type: 3}
    - time: 0.04
      value: {fileID: 21300000, guid: d6203fb09978ed24ab066d391b5c9977, type: 3}
    - time: 0.08
      value: {fileID: 21300000, guid: 670e52472af3962498befa9a196bee89, type: 3}
    - time: 0.12
      value: {fileID: 21300000, guid: 5682294df631fa04796f8aa123db1823, type: 3}
    - time: 0.16
      value: {fileID: 21300000, guid: 0befc645853a859469a7d86d20f4bb40, type: 3}
    - time: 0.2
      value: {fileID: 21300000, guid: fa970e23d5f5c434285e4f792974af3b, type: 3}
    - time: 0.24000001
      value: {fileID: 21300000, guid: 91e5e06e4fdd40e4ca3442ce8e1c827e, type: 3}
    - time: 0.28
      value: {fileID: 21300000, guid: 1506738b2a78d674f8ad1f475d67c61c, type: 3}
    - time: 0.32
      value: {fileID: 21300000, guid: b33879ed0e0960d488794c05afe8cac8, type: 3}
    - time: 0.35999998
      value: {fileID: 21300000, guid: 0914dee133356f3469aff71bd192f15f, type: 3}
    - time: 0.39999998
      value: {fileID: 21300000, guid: efda68a8632b21b45a01aa9a8519a38d, type: 3}
    - time: 0.43999997
      value: {fileID: 21300000, guid: 880b7df33eb53014396f3055075b03d8, type: 3}
    - time: 0.47999996
      value: {fileID: 21300000, guid: 90ff83e4008542443bda478d482e27c2, type: 3}
    - time: 0.52
      value: {fileID: 21300000, guid: ca7bc72ad1b7f914c993f9b7424d6db7, type: 3}
    - time: 0.56
      value: {fileID: 21300000, guid: 6a658b872f4be4542ae7163c63dc1c19, type: 3}
    - time: 0.6
      value: {fileID: 21300000, guid: ed592f66a9e65a04284ddc48627e105a, type: 3}
    - time: 0.64000005
      value: {fileID: 21300000, guid: 712d6ce610852974cbb8dae734c8a8bb, type: 3}
    - time: 0.68000007
      value: {fileID: 21300000, guid: b062c5f377a483c489f066e39b8a9ac4, type: 3}
    - time: 0.7200001
      value: {fileID: 21300000, guid: d09867aa28f075f46811d3e34eaebb9b, type: 3}
    - time: 0.7600001
      value: {fileID: 21300000, guid: ee73b991442316a4cbc344bb09aa2378, type: 3}
    - time: 0.80000013
      value: {fileID: 21300000, guid: db539051a274dfa4588ec06a29aaf25e, type: 3}
    - time: 0.84000015
      value: {fileID: 21300000, guid: 82bac8d0efe764949aa27a1e7716d295, type: 3}
    - time: 0.8800002
      value: {fileID: 21300000, guid: 32a025bd11d548147aa286d9bb487184, type: 3}
    - time: 0.9200002
      value: {fileID: 21300000, guid: 8875222aa68e8a444b121c19bded2326, type: 3}
    - time: 0.9600002
      value: {fileID: 21300000, guid: 6c7a734d722fc7f429a73da9ae503974, type: 3}
    - time: 1.0000002
      value: {fileID: 21300000, guid: 9d06801212fd4524691cfa0caec97fb3, type: 3}
    - time: 1.0400002
      value: {fileID: 21300000, guid: 8dbb7d0320f14a54597138dac91b6286, type: 3}
    - time: 1.0800002
      value: {fileID: 21300000, guid: 59c01ae2f10c3e549baecc52f8e5fe53, type: 3}
    - time: 1.1200001
      value: {fileID: 21300000, guid: 9f9c9ba0114abd3438cc85aeab29cd0f, type: 3}
    attribute: m_Sprite
    path: Skin
    classID: 114
    script: {fileID: -765806418, guid: f70555f144d8491a825f0804e09c671c, type: 3}
  m_SampleRate: 25
  m_WrapMode: 0
  m_Bounds:
    m_Center: {x: 0, y: 0, z: 0}
    m_Extent: {x: 0, y: 0, z: 0}
  m_ClipBindingConstant:
    genericBindings:
    - serializedVersion: 2
      path: 2722875168
      attribute: 2015549526
      script: {fileID: -765806418, guid: f70555f144d8491a825f0804e09c671c, type: 3}
      typeID: 114
      customType: 0
      isPPtrCurve: 1
    pptrCurveMapping:
    - {fileID: 21300000, guid: fcf494a40de6a0746a8875c0dac3b94e, type: 3}
    - {fileID: 21300000, guid: d6203fb09978ed24ab066d391b5c9977, type: 3}
    - {fileID: 21300000, guid: 670e52472af3962498befa9a196bee89, type: 3}
    - {fileID: 21300000, guid: 5682294df631fa04796f8aa123db1823, type: 3}
    - {fileID: 21300000, guid: 0befc645853a859469a7d86d20f4bb40, type: 3}
    - {fileID: 21300000, guid: fa970e23d5f5c434285e4f792974af3b, type: 3}
    - {fileID: 21300000, guid: 91e5e06e4fdd40e4ca3442ce8e1c827e, type: 3}
    - {fileID: 21300000, guid: 1506738b2a78d674f8ad1f475d67c61c, type: 3}
    - {fileID: 21300000, guid: b33879ed0e0960d488794c05afe8cac8, type: 3}
    - {fileID: 21300000, guid: 0914dee133356f3469aff71bd192f15f, type: 3}
    - {fileID: 21300000, guid: efda68a8632b21b45a01aa9a8519a38d, type: 3}
    - {fileID: 21300000, guid: 880b7df33eb53014396f3055075b03d8, type: 3}
    - {fileID: 21300000, guid: 90ff83e4008542443bda478d482e27c2, type: 3}
    - {fileID: 21300000, guid: ca7bc72ad1b7f914c993f9b7424d6db7, type: 3}
    - {fileID: 21300000, guid: 6a658b872f4be4542ae7163c63dc1c19, type: 3}
    - {fileID: 21300000, guid: ed592f66a9e65a04284ddc48627e105a, type: 3}
    - {fileID: 21300000, guid: 712d6ce610852974cbb8dae734c8a8bb, type: 3}
    - {fileID: 21300000, guid: b062c5f377a483c489f066e39b8a9ac4, type: 3}
    - {fileID: 21300000, guid: d09867aa28f075f46811d3e34eaebb9b, type: 3}
    - {fileID: 21300000, guid: ee73b991442316a4cbc344bb09aa2378, type: 3}
    - {fileID: 21300000, guid: db539051a274dfa4588ec06a29aaf25e, type: 3}
    - {fileID: 21300000, guid: 82bac8d0efe764949aa27a1e7716d295, type: 3}
    - {fileID: 21300000, guid: 32a025bd11d548147aa286d9bb487184, type: 3}
    - {fileID: 21300000, guid: 8875222aa68e8a444b121c19bded2326, type: 3}
    - {fileID: 21300000, guid: 6c7a734d722fc7f429a73da9ae503974, type: 3}
    - {fileID: 21300000, guid: 9d06801212fd4524691cfa0caec97fb3, type: 3}
    - {fileID: 21300000, guid: 8dbb7d0320f14a54597138dac91b6286, type: 3}
    - {fileID: 21300000, guid: 59c01ae2f10c3e549baecc52f8e5fe53, type: 3}
    - {fileID: 21300000, guid: 9f9c9ba0114abd3438cc85aeab29cd0f, type: 3}
  m_AnimationClipSettings:
    serializedVersion: 2
    m_AdditiveReferencePoseClip: {fileID: 0}
    m_AdditiveReferencePoseTime: 0
    m_StartTime: 0
    m_StopTime: 1.1600001
    m_OrientationOffsetY: 0
    m_Level: 0
    m_CycleOffset: 0
    m_HasAdditiveReferencePose: 0
    m_LoopTime: 1
    m_LoopBlend: 0
    m_LoopBlendOrientation: 0
    m_LoopBlendPositionY: 0
    m_LoopBlendPositionXZ: 0
    m_KeepOriginalOrientation: 0
    m_KeepOriginalPositionY: 1
    m_KeepOriginalPositionXZ: 0
    m_HeightFromFeet: 0
    m_Mirror: 0
  m_EditorCurves: []
  m_EulerEditorCurves: []
  m_HasGenericRootTransform: 0
  m_HasMotionFloatCurves: 0
  m_GenerateMotionCurves: 0
  m_Events: []
