%YAML 1.1
%TAG !u! tag:unity3d.com,2011:
--- !u!74 &7400000
AnimationClip:
  m_ObjectHideFlags: 0
  m_PrefabParentObject: {fileID: 0}
  m_PrefabInternal: {fileID: 0}
  m_Name: PressIconAnfibio
  serializedVersion: 6
  m_Legacy: 0
  m_Compressed: 0
  m_UseHighQualityCurve: 1
  m_RotationCurves: []
  m_CompressedRotationCurves: []
  m_EulerCurves: []
  m_PositionCurves: []
  m_ScaleCurves: []
  m_FloatCurves: []
  m_PPtrCurves:
  - curve:
    - time: 0
      value: {fileID: 21300000, guid: ef6e0f30b134d1c4997d55640fa722ae, type: 3}
    - time: 0.04
      value: {fileID: 21300000, guid: 31ef96e8a9a751f408ecec5c16bbe18a, type: 3}
    - time: 0.08
      value: {fileID: 21300000, guid: 203b355b07a5d674dac0dab125f1788f, type: 3}
    - time: 0.12
      value: {fileID: 21300000, guid: ee60815e2218bf640bb3b1a2581efe43, type: 3}
    - time: 0.16
      value: {fileID: 21300000, guid: 5723bb7f6b8d6e9438717824687b73b0, type: 3}
    - time: 0.2
      value: {fileID: 21300000, guid: fc4390d8d47b6f345808397e1e5363eb, type: 3}
    - time: 0.24000001
      value: {fileID: 21300000, guid: f5699310d03e07a4aab47bb99395e56a, type: 3}
    - time: 0.28
      value: {fileID: 21300000, guid: 2f088b8e76ee5aa47b36f971eeafad08, type: 3}
    - time: 0.32
      value: {fileID: 21300000, guid: 7545e1d31d0aa6447abec8303ebdb31a, type: 3}
    - time: 0.35999998
      value: {fileID: 21300000, guid: 3ebb2324fad95fa4085b5689f60ae091, type: 3}
    - time: 0.39999998
      value: {fileID: 21300000, guid: 72d9c48431058f9438a4d89d6029460b, type: 3}
    - time: 0.43999997
      value: {fileID: 21300000, guid: c9f3e2c35340970408f54c020021cf3e, type: 3}
    - time: 0.47999996
      value: {fileID: 21300000, guid: 5d3df5cc498688e4b880bfebf7a0d9d1, type: 3}
    - time: 0.52
      value: {fileID: 21300000, guid: 95ce214387ee4ab46987d0acd81a9f22, type: 3}
    - time: 0.56
      value: {fileID: 21300000, guid: 77854b6bd71d39149bad7d7c4db8e2c2, type: 3}
    - time: 0.6
      value: {fileID: 21300000, guid: a1136379a00cd1945bcaf804265bb099, type: 3}
    - time: 0.64000005
      value: {fileID: 21300000, guid: 780961b18e585d7438aedb6cdf656055, type: 3}
    - time: 0.68000007
      value: {fileID: 21300000, guid: 3d99ab060dbd3274580c1304dac8d200, type: 3}
    - time: 0.7200001
      value: {fileID: 21300000, guid: 5c51514be0aa44141b8656e44f52074d, type: 3}
    - time: 0.7600001
      value: {fileID: 21300000, guid: 6033dd1e895fb5747bfe417af56d930c, type: 3}
    - time: 0.80000013
      value: {fileID: 21300000, guid: a239e4db21bc68846aec0250e095b777, type: 3}
    - time: 0.84000015
      value: {fileID: 21300000, guid: 1d880c9c3af940044b709f74cbabb011, type: 3}
    - time: 0.8800002
      value: {fileID: 21300000, guid: 099ba5f5aac4ff84391e45905bed6739, type: 3}
    - time: 0.9200002
      value: {fileID: 21300000, guid: 5d2881ba8a2686d47bc3060241152ec9, type: 3}
    - time: 0.9600002
      value: {fileID: 21300000, guid: c1c880494c7702f4fa70d9809abedff9, type: 3}
    - time: 1.0000002
      value: {fileID: 21300000, guid: 57de72372cda55b4087a08b25fb0b123, type: 3}
    - time: 1.0400002
      value: {fileID: 21300000, guid: ffcae5a5a60b09f469306e5fde469fe1, type: 3}
    - time: 1.0800002
      value: {fileID: 21300000, guid: 45377dbbcd7474a409ad6e6225ed4d9f, type: 3}
    - time: 1.1200001
      value: {fileID: 21300000, guid: e8814b16114bb7f4688203e1027cb826, type: 3}
    - time: 1.16
      value: {fileID: 21300000, guid: ef6e0f30b134d1c4997d55640fa722ae, type: 3}
    attribute: m_Sprite
    path: Skin
    classID: 114
    script: {fileID: -765806418, guid: f70555f144d8491a825f0804e09c671c, type: 3}
  m_SampleRate: 25
  m_WrapMode: 0
  m_Bounds:
    m_Center: {x: 0, y: 0, z: 0}
    m_Extent: {x: 0, y: 0, z: 0}
  m_ClipBindingConstant:
    genericBindings:
    - serializedVersion: 2
      path: 2722875168
      attribute: 2015549526
      script: {fileID: -765806418, guid: f70555f144d8491a825f0804e09c671c, type: 3}
      typeID: 114
      customType: 0
      isPPtrCurve: 1
    pptrCurveMapping:
    - {fileID: 21300000, guid: ef6e0f30b134d1c4997d55640fa722ae, type: 3}
    - {fileID: 21300000, guid: 31ef96e8a9a751f408ecec5c16bbe18a, type: 3}
    - {fileID: 21300000, guid: 203b355b07a5d674dac0dab125f1788f, type: 3}
    - {fileID: 21300000, guid: ee60815e2218bf640bb3b1a2581efe43, type: 3}
    - {fileID: 21300000, guid: 5723bb7f6b8d6e9438717824687b73b0, type: 3}
    - {fileID: 21300000, guid: fc4390d8d47b6f345808397e1e5363eb, type: 3}
    - {fileID: 21300000, guid: f5699310d03e07a4aab47bb99395e56a, type: 3}
    - {fileID: 21300000, guid: 2f088b8e76ee5aa47b36f971eeafad08, type: 3}
    - {fileID: 21300000, guid: 7545e1d31d0aa6447abec8303ebdb31a, type: 3}
    - {fileID: 21300000, guid: 3ebb2324fad95fa4085b5689f60ae091, type: 3}
    - {fileID: 21300000, guid: 72d9c48431058f9438a4d89d6029460b, type: 3}
    - {fileID: 21300000, guid: c9f3e2c35340970408f54c020021cf3e, type: 3}
    - {fileID: 21300000, guid: 5d3df5cc498688e4b880bfebf7a0d9d1, type: 3}
    - {fileID: 21300000, guid: 95ce214387ee4ab46987d0acd81a9f22, type: 3}
    - {fileID: 21300000, guid: 77854b6bd71d39149bad7d7c4db8e2c2, type: 3}
    - {fileID: 21300000, guid: a1136379a00cd1945bcaf804265bb099, type: 3}
    - {fileID: 21300000, guid: 780961b18e585d7438aedb6cdf656055, type: 3}
    - {fileID: 21300000, guid: 3d99ab060dbd3274580c1304dac8d200, type: 3}
    - {fileID: 21300000, guid: 5c51514be0aa44141b8656e44f52074d, type: 3}
    - {fileID: 21300000, guid: 6033dd1e895fb5747bfe417af56d930c, type: 3}
    - {fileID: 21300000, guid: a239e4db21bc68846aec0250e095b777, type: 3}
    - {fileID: 21300000, guid: 1d880c9c3af940044b709f74cbabb011, type: 3}
    - {fileID: 21300000, guid: 099ba5f5aac4ff84391e45905bed6739, type: 3}
    - {fileID: 21300000, guid: 5d2881ba8a2686d47bc3060241152ec9, type: 3}
    - {fileID: 21300000, guid: c1c880494c7702f4fa70d9809abedff9, type: 3}
    - {fileID: 21300000, guid: 57de72372cda55b4087a08b25fb0b123, type: 3}
    - {fileID: 21300000, guid: ffcae5a5a60b09f469306e5fde469fe1, type: 3}
    - {fileID: 21300000, guid: 45377dbbcd7474a409ad6e6225ed4d9f, type: 3}
    - {fileID: 21300000, guid: e8814b16114bb7f4688203e1027cb826, type: 3}
    - {fileID: 21300000, guid: ef6e0f30b134d1c4997d55640fa722ae, type: 3}
  m_AnimationClipSettings:
    serializedVersion: 2
    m_AdditiveReferencePoseClip: {fileID: 0}
    m_AdditiveReferencePoseTime: 0
    m_StartTime: 0
    m_StopTime: 1.1999999
    m_OrientationOffsetY: 0
    m_Level: 0
    m_CycleOffset: 0
    m_HasAdditiveReferencePose: 0
    m_LoopTime: 0
    m_LoopBlend: 0
    m_LoopBlendOrientation: 0
    m_LoopBlendPositionY: 0
    m_LoopBlendPositionXZ: 0
    m_KeepOriginalOrientation: 0
    m_KeepOriginalPositionY: 1
    m_KeepOriginalPositionXZ: 0
    m_HeightFromFeet: 0
    m_Mirror: 0
  m_EditorCurves: []
  m_EulerEditorCurves: []
  m_HasGenericRootTransform: 0
  m_HasMotionFloatCurves: 0
  m_GenerateMotionCurves: 0
  m_Events: []
